{
    "KPlugin": {
        "Authors": [
            {
                "Email": "kde@privat.broulik.de",
                "Name": "Kai Uwe Broulik"
            }
        ],
        "Category": "Windows and Tasks",
        "Description": "Global menubar on top of the screen",
        "Description[ar]": "شريط القوائم العموميّ أعلى الشّاشة",
        "Description[ca@valencia]": "Barra de menús global a la part superior de la pantalla",
        "Description[ca]": "Barra de menús global a la part superior de la pantalla",
        "Description[da]": "Global menulinje øverst på skærmen",
        "Description[de]": "Globale Menüleiste oben auf dem Bildschirm",
        "Description[en_GB]": "Global menubar on top of the screen",
        "Description[es]": "Barra de menú global en la parte superior de la pantalla",
        "Description[eu]": "Menu-barra orokorra pantailaren gainaldean",
        "Description[fi]": "Työpöydänlaajuinen valikkorivi ruudun ylälaidassa",
        "Description[fr]": "Barre de menu globale en haut de l'écran",
        "Description[gl]": "Barra de menú global na parte superior da pantalla.",
        "Description[hu]": "Globális menüsáv a képernyő tetején",
        "Description[it]": "Barra dei menu globale nella parte alta dello schermo",
        "Description[nl]": "Globale menubalk bovenaan het scherm",
        "Description[nn]": "Global menylinje øvst på skjermen",
        "Description[pl]": "Globalny pasek menu na górze ekranu",
        "Description[pt]": "Menu global no topo do ecrã",
        "Description[pt_BR]": "Barra de menu global no topo da tela",
        "Description[sl]": "Splošna menijska vrstica na vrhu zaslona",
        "Description[sr@ijekavian]": "Глобална трака менија на врху екрана",
        "Description[sr@ijekavianlatin]": "Globalna traka menija na vrhu ekrana",
        "Description[sr@latin]": "Globalna traka menija na vrhu ekrana",
        "Description[sr]": "Глобална трака менија на врху екрана",
        "Description[sv]": "Global menyrad överst på skärmen",
        "Description[uk]": "Загальна панель меню у верхній частині екрана",
        "Description[x-test]": "xxGlobal menubar on top of the screenxx",
        "Description[zh_CN]": "屏幕顶部的全局菜单栏",
        "Icon": "show-menu",
        "Id": "org.kde.plasma.appmenu",
        "License": "GPL-2.0+",
        "Name": "Global Menu",
        "Name[ar]": "القائمة العموميّة",
        "Name[ca@valencia]": "Menú global",
        "Name[ca]": "Menú global",
        "Name[cs]": "Globální nabídka",
        "Name[da]": "Global menu",
        "Name[de]": "Globales Menü",
        "Name[el]": "Καθολικό μενού",
        "Name[en_GB]": "Global Menu",
        "Name[es]": "Menú global",
        "Name[eu]": "Menu orokorra",
        "Name[fi]": "Yleisvalikko",
        "Name[fr]": "Menu global",
        "Name[gl]": "Menú global",
        "Name[he]": "תפריט גלובלי",
        "Name[hu]": "Globális menü",
        "Name[it]": "Menu globale",
        "Name[ko]": "전역 메뉴",
        "Name[lt]": "Visuotinis meniu",
        "Name[nl]": "Globaal menu",
        "Name[nn]": "Global meny",
        "Name[pa]": "ਗਲੋਬਲ ਮੇਨੂ",
        "Name[pl]": "Menu globalne",
        "Name[pt]": "Menu Global",
        "Name[pt_BR]": "Menu global",
        "Name[ru]": "Меню приложения",
        "Name[sk]": "Globálne menu",
        "Name[sl]": "Splošni meni",
        "Name[sr@ijekavian]": "Глобални мени",
        "Name[sr@ijekavianlatin]": "Globalni meni",
        "Name[sr@latin]": "Globalni meni",
        "Name[sr]": "Глобални мени",
        "Name[sv]": "Global meny",
        "Name[tr]": "Genel Menü",
        "Name[uk]": "Загальне меню",
        "Name[x-test]": "xxGlobal Menuxx",
        "Name[zh_CN]": "全局菜单",
        "Name[zh_TW]": "全域選單",
        "ServiceTypes": [
            "Plasma/Applet"
        ],
        "Version": "2.0",
        "Website": "plasma.kde.org"
    },
    "X-Plasma-API": "declarativeappletscript",
    "X-Plasma-MainScript": "ui/main.qml"
}
