{
    "KPlugin": {
        "Authors": [
            {
                "Email": "mart@kde.org",
                "Name": "Marco Martin"
            }
        ],
        "Description": "Configure The Look And feel of the Desktop",
        "Description[ar]": "اضبط مظهر وسطح المكتب وملمسه",
        "Description[bs]": "Konfiguriši Pogledaj i Osjeti dekstopa",
        "Description[ca@valencia]": "Configura l'aspecte i comportament de l'escriptori",
        "Description[ca]": "Configura l'aspecte i comportament de l'escriptori",
        "Description[cs]": "Nastavit vzhled a chování plochy",
        "Description[da]": "Indstil skrivebordets udseende og fremtoning",
        "Description[de]": "Legt das Erscheinungsbild der Arbeitsfläche fest",
        "Description[el]": "Διαμόρφωση της εμφάνισης και της αίσθησης της επιφάνειας εργασίας",
        "Description[en_GB]": "Configure The Look And feel of the Desktop",
        "Description[es]": "Configurar el aspecto visual del escritorio",
        "Description[et]": "Töölaua välimuse seadistamine",
        "Description[eu]": "Konfiguratu mahaiganaren itxura eta izaera",
        "Description[fi]": "Työpöydän ulkoasun ja tuntuman asetukset",
        "Description[fr]": "Configurer l'apparence du bureau",
        "Description[gl]": "Configurar a aparencia e o comportamento do escritorio",
        "Description[he]": "הגדר את המראה של שולחן העבודה",
        "Description[hu]": "Az asztal megjelenésének beállítása",
        "Description[id]": "Konfigurasi Look And Feel-nya Desktop",
        "Description[is]": "Stilla útlit og viðmót skjáborðsins",
        "Description[it]": "Configura l'aspetto del desktop",
        "Description[ja]": "デスクトップの外観を設定",
        "Description[ko]": "데스크톱 모습과 느낌 설정",
        "Description[lt]": "Konfigūruoti darbalaukio išvaizdą ir pojūtį",
        "Description[nb]": "Sett opp skrivebordets utseende og oppførsel",
        "Description[nds]": "Dat Utsehn un dat Bedenen vun den Schriefdisch instellen",
        "Description[nl]": "Het uiterlijk en gedrag van het bureaublad instellen",
        "Description[nn]": "Set opp utsjånaden og åferda til skrivebordet",
        "Description[pa]": "ਡੈਸਕਟਾਪ ਦੀ ਦਿੱਖ ਅਤੇ ਰਵੱਈਏ ਦੀ ਸੰਰਚਨਾ ਕਰੋ",
        "Description[pl]": "Ustawienia wrażeń wzrokowych i dotykowych",
        "Description[pt]": "Configurar a Aparência e Comportamento do Ecrã",
        "Description[pt_BR]": "Configura a aparência do ambiente de trabalho",
        "Description[ru]": "Настройка внешнего вида рабочей среды Plasma",
        "Description[sk]": "Nastaviť vzhľad a nastavenia pracovnej plochy",
        "Description[sl]": "Nastavi videz in občutek namizja",
        "Description[sr@ijekavian]": "Подесите изглед и осећај површи",
        "Description[sr@ijekavianlatin]": "Podesite izgled i osećaj površi",
        "Description[sr@latin]": "Podesite izgled i osećaj površi",
        "Description[sr]": "Подесите изглед и осећај површи",
        "Description[sv]": "Anpassa skrivbordets  utseende och känsla",
        "Description[tr]": "Masaüstünün Görünüm ve Duyum ayarlarını yapılandır",
        "Description[uk]": "Налаштувати вигляд і поведінку стільниці",
        "Description[x-test]": "xxConfigure The Look And feel of the Desktopxx",
        "Description[zh_CN]": "配置桌面的观感",
        "Description[zh_TW]": "設定桌面的外觀與感覺",
        "Icon": "preferences-desktop-theme-style",
        "Id": "kcm_lookandfeel",
        "License": "GPLv2",
        "Name": "Look And Feel",
        "Name[ar]": "المظهر والملمس",
        "Name[bs]": "Pogledaj i Osjeti",
        "Name[ca@valencia]": "Aspecte i comportament",
        "Name[ca]": "Aspecte i comportament",
        "Name[cs]": "Vzhled a chování",
        "Name[da]": "Udseende og fremtoning",
        "Name[de]": "Erscheinungsbild",
        "Name[el]": "Εμφάνιση και αίσθηση",
        "Name[en_GB]": "Look And Feel",
        "Name[es]": "Aspecto visual",
        "Name[et]": "Välimus",
        "Name[eu]": "Itxura eta izaera",
        "Name[fi]": "Ulkoasu ja tuntuma",
        "Name[fr]": "Apparence",
        "Name[gl]": "Aparencia e comportamento",
        "Name[he]": "מראה ותחושה",
        "Name[hu]": "Megjelenés",
        "Name[id]": "Look And Feel",
        "Name[is]": "Útlit og viðmót",
        "Name[it]": "Aspetto",
        "Name[ja]": "外観",
        "Name[ko]": "모습과 느낌",
        "Name[lt]": "Išvaizda ir pojūtis",
        "Name[nb]": "Utseende og oppførsel",
        "Name[nds]": "Utsehn un Bedenen",
        "Name[nl]": "Uiterlijk en gedrag",
        "Name[nn]": "Utsjånad og åtferd",
        "Name[pa]": "ਦਿੱਖ ਤੇ ਛੋਹ",
        "Name[pl]": "Wrażenia wzrokowe i dotykowe",
        "Name[pt]": "Aparência e Comportamento",
        "Name[pt_BR]": "Aparência",
        "Name[ru]": "Внешний вид рабочей среды",
        "Name[sk]": "Vzhľad a nastavenie",
        "Name[sl]": "Videz in občutek",
        "Name[sr@ijekavian]": "Изглед и осећај",
        "Name[sr@ijekavianlatin]": "Izgled i osećaj",
        "Name[sr@latin]": "Izgled i osećaj",
        "Name[sr]": "Изглед и осећај",
        "Name[sv]": "Utseende och känsla",
        "Name[tr]": "Görünüm ve Duyum",
        "Name[uk]": "Вигляд і поведінка",
        "Name[x-test]": "xxLook And Feelxx",
        "Name[zh_CN]": "观感",
        "Name[zh_TW]": "外觀與感覺",
        "ServiceTypes": [
            "Plasma/Generic"
        ],
        "Version": "",
        "Website": ""
    },
    "Keywords": "",
    "X-KDE-ParentApp": "",
    "X-Plasma-API": "declarativeappletscript",
    "X-Plasma-MainScript": "ui/main.qml",
    "X-Plasma-RemoteLocation": ""
}
