{
    "KPlugin": {
        "Authors": [
            {
                "Email": "mart@kde.org",
                "Name": "Marco Martin"
            }
        ],
        "Category": "",
        "Description": "Plain color wallpaper",
        "Description[ca@valencia]": "Fons d'escriptori en color llis",
        "Description[ca]": "Fons d'escriptori en color llis",
        "Description[da]": "Ensfarvet baggrundsbillede",
        "Description[de]": "Einfarbiges Hintergrundbild",
        "Description[el]": "Ταπετσαρία απλού χρώματος",
        "Description[en_GB]": "Plain colour wallpaper",
        "Description[es]": "Fondo del escritorio de color liso",
        "Description[eu]": "Kolore bakarreko horma-papera",
        "Description[fi]": "Yksivärinen tausta",
        "Description[fr]": "Fond d'écran de couleur unie",
        "Description[gl]": "Fondo de pantalla de cor simple.",
        "Description[hu]": "Egyszínű háttérkép",
        "Description[it]": "Sfondo con colore semplice",
        "Description[ko]": "단색 배경 그림",
        "Description[nl]": "Vlakke kleur achtergrond",
        "Description[nn]": "Rein farge som bakgrunn",
        "Description[pa]": "ਇੱਕ ਰੰਗ ਦਾ ਵਾਲਪੇਪਰ",
        "Description[pl]": "Tapeta zwykłego koloru",
        "Description[pt]": "Papel de parede de cor simples",
        "Description[pt_BR]": "Papel de parede de cor simples",
        "Description[ru]": "Простые одноцветные обои",
        "Description[sk]": "Tapeta obyčajná farba",
        "Description[sl]": "Ozadje s preprosto barvo",
        "Description[sr@ijekavian]": "Проста боја као тапет",
        "Description[sr@ijekavianlatin]": "Prosta boja kao tapet",
        "Description[sr@latin]": "Prosta boja kao tapet",
        "Description[sr]": "Проста боја као тапет",
        "Description[sv]": "Skrivbordsunderlägg med enkel färg",
        "Description[tr]": "Düz renk duvar kağıdı",
        "Description[uk]": "Звичайне одноколірне тло",
        "Description[x-test]": "xxPlain color wallpaperxx",
        "Description[zh_CN]": "纯色壁纸",
        "Icon": "preferences-desktop-color",
        "Id": "org.kde.color",
        "License": "GPLv2+",
        "Name": "Plain Color",
        "Name[ar]": "لون صِرف",
        "Name[bs]": "Obična boja",
        "Name[ca@valencia]": "Color llis",
        "Name[ca]": "Color llis",
        "Name[cs]": "Prostá barva",
        "Name[da]": "Almindelig farve",
        "Name[de]": "Einfarbig",
        "Name[el]": "Απλό χρώμα",
        "Name[en_GB]": "Plain Colour",
        "Name[es]": "Color sencillo",
        "Name[et]": "Puhas värv",
        "Name[eu]": "Kolore bakarra",
        "Name[fi]": "Yksivärinen",
        "Name[fr]": "Couleur pleine",
        "Name[gl]": "Cor simple",
        "Name[he]": "צבע רגיל",
        "Name[hu]": "Egyszerű szín",
        "Name[ia]": "Color plan",
        "Name[id]": "Warna Polos",
        "Name[is]": "Hreinn litur",
        "Name[it]": "Colore semplice",
        "Name[ja]": "単色",
        "Name[kk]": "Жәй түсі",
        "Name[ko]": "단색",
        "Name[lt]": "Paprasta spalva",
        "Name[nb]": "Ren farge",
        "Name[nds]": "Eenfach Klöör",
        "Name[nl]": "Vlakke kleur",
        "Name[nn]": "Rein farge",
        "Name[pa]": "ਇੱਕ ਰੰਗ",
        "Name[pl]": "Zwykły kolor",
        "Name[pt]": "Cor Simples",
        "Name[pt_BR]": "Cor simples",
        "Name[ro]": "Culoare simplă",
        "Name[ru]": "Одноцветные обои",
        "Name[sk]": "Obyčajná farba",
        "Name[sl]": "Preprosta barva",
        "Name[sr@ijekavian]": "проста боја",
        "Name[sr@ijekavianlatin]": "prosta boja",
        "Name[sr@latin]": "prosta boja",
        "Name[sr]": "проста боја",
        "Name[sv]": "Enkel färg",
        "Name[tr]": "Düz Renk",
        "Name[uk]": "Звичайний колір",
        "Name[x-test]": "xxPlain Colorxx",
        "Name[zh_CN]": "纯色",
        "Name[zh_TW]": "普通顏色",
        "ServiceTypes": [
            "Plasma/Wallpaper"
        ],
        "Version": "",
        "Website": ""
    },
    "Keywords": "",
    "X-KDE-ParentApp": "",
    "X-Plasma-MainScript": "ui/main.qml"
}
