{
    "KPlugin": {
        "Authors": [
            {
                "Email": "jowenn@kde.org, davide.bettio@kdemail.net",
                "Name": "Joseph Wenninger,Davide Bettio"
            }
        ],
        "Category": "Date and Time",
        "Dependencies": [
        ],
        "Description": "Time displayed in binary format",
        "Description[ar]": "الوقت يظهر بالتنسيق الثنائي",
        "Description[bs]": "Vrijeme prikazano u binarnom obliku",
        "Description[ca@valencia]": "Mostra l'hora en format binari",
        "Description[ca]": "Mostra l'hora en format binari",
        "Description[cs]": "Zobrazení času v binárním formátu",
        "Description[da]": "Tiden vist i binært format",
        "Description[de]": "Zeitanzeige im Binärformat",
        "Description[el]": "Εμφάνιση της ώρας σε δυαδική μορφή",
        "Description[en_GB]": "Time displayed in binary format",
        "Description[es]": "Hora mostrada en formato binario",
        "Description[et]": "Aja näitamine binaarkujul",
        "Description[eu]": "Ordua formatu bitarrean bistaratuta",
        "Description[fi]": "Binaarimuotoinen ajanesitys",
        "Description[fr]": "Heure affichée au format numérique",
        "Description[ga]": "An t-am i bhformáid dhénártha",
        "Description[gl]": "Mostra a hora no formato binario",
        "Description[he]": "השעה מוצגת בפורמט בִּינָרִי",
        "Description[hr]": "Vrijeme je prikazano u binarnom formatu",
        "Description[hu]": "Bináris óra",
        "Description[is]": "Sýnir tímann á tvíundarformi",
        "Description[it]": "Ora mostrata in formato binario",
        "Description[ja]": "時間をバイナリ形式で表示します",
        "Description[kk]": "Бинарлы пішімдегі уақыт",
        "Description[km]": "បាន​បង្ហាញ​ពេលវេលា​គិត​ជា​ទ្រង់ទ្រាយ​គោល​ពីរ",
        "Description[ko]": "이진수로 시각 표시",
        "Description[ku]": "Dem di teşeya cot-bûyî de dê bê nîşandan",
        "Description[lt]": "Laikas rodomas skaitmeniniu formatu",
        "Description[lv]": "Rāda laiku binārā formātā",
        "Description[mr]": "बायनरी पद्धतिने वेळ दर्शविली जाते",
        "Description[nb]": "Tiden vist i binærformat",
        "Description[nds]": "Tiet in Bineerformaat wiest",
        "Description[nl]": "De tijd in binair formaat",
        "Description[nn]": "Klokka vist i binærformat",
        "Description[pa]": "ਬਾਈਨਰੀ ਫਾਰਮੈਟ ਵਿੱਚ ਸਮਾਂ ਵੇਖੋ",
        "Description[pl]": "Wyświetla czas w formacie dwójkowym",
        "Description[pt]": "Hora mostrada no formato binário",
        "Description[pt_BR]": "Hora exibida em formato binário",
        "Description[ro]": "Ora afișată în format binar",
        "Description[ru]": "Время в двоичной записи",
        "Description[sk]": "Čas zobrazený v binárnom formáte",
        "Description[sl]": "Čas je prikazan v dvojiški obliki",
        "Description[sr@ijekavian]": "Вријеме приказано у бинарном облику",
        "Description[sr@ijekavianlatin]": "Vrijeme prikazano u binarnom obliku",
        "Description[sr@latin]": "Vreme prikazano u binarnom obliku",
        "Description[sr]": "Време приказано у бинарном облику",
        "Description[sv]": "Tid visad med binärformat",
        "Description[th]": "แสดงเวลาในรูปแบบไบนารี",
        "Description[tr]": "Saati ikili biçimde görüntüle",
        "Description[uk]": "Час, показаний у двійковому форматі",
        "Description[wa]": "Eure håynêye e cogne binaire",
        "Description[x-test]": "xxTime displayed in binary formatxx",
        "Description[zh_CN]": "以二进制格式显示的时间",
        "Description[zh_TW]": "以二進位格式顯示時間",
        "EnabledByDefault": true,
        "Icon": "clock",
        "Id": "org.kde.plasma.binaryclock",
        "License": "GPL-2.0+",
        "Name": "Binary Clock",
        "Name[ar]": "ساعة ثنائية",
        "Name[bs]": "Binarni sat",
        "Name[ca@valencia]": "Rellotge binari",
        "Name[ca]": "Rellotge binari",
        "Name[cs]": "Binární hodiny",
        "Name[da]": "Binært ur",
        "Name[de]": "Binäre Uhr",
        "Name[el]": "Δυαδικό ρολόι",
        "Name[en_GB]": "Binary Clock",
        "Name[es]": "Reloj binario",
        "Name[et]": "Binaarkell",
        "Name[eu]": "Ordulari bitarra",
        "Name[fi]": "Binaarikello",
        "Name[fr]": "Horloge binaire",
        "Name[ga]": "Clog Dénártha",
        "Name[gl]": "Reloxo binario",
        "Name[he]": "שעון בִּינָרִי",
        "Name[hr]": "Binarni sat",
        "Name[hu]": "Bináris óra",
        "Name[is]": "Tvíundarklukka",
        "Name[it]": "Orologio binario",
        "Name[ja]": "バイナリ時計",
        "Name[kk]": "Бинарлы сағат",
        "Name[km]": "នាឡិកា​គោល​ពីរ",
        "Name[ko]": "바이너리 시계",
        "Name[ku]": "Demjimêra Cot",
        "Name[lt]": "Dvejetainis laikrodis",
        "Name[lv]": "Binārs pulkstenis",
        "Name[mr]": "बायनरी घड्याळ",
        "Name[nb]": "Binær klokke",
        "Name[nds]": "Bineerklock",
        "Name[nl]": "Binaire klok",
        "Name[nn]": "Binærklokke",
        "Name[pa]": "ਬਾਈਨਰੀ ਘੜੀ",
        "Name[pl]": "Zegar dwójkowy",
        "Name[pt]": "Relógio Binário",
        "Name[pt_BR]": "Relógio binário",
        "Name[ro]": "Ceas binar",
        "Name[ru]": "Двоичные часы",
        "Name[sk]": "Binárne hodiny",
        "Name[sl]": "Dvojiška ura",
        "Name[sq]": "Orë Bianre",
        "Name[sr@ijekavian]": "бинарни сат",
        "Name[sr@ijekavianlatin]": "binarni sat",
        "Name[sr@latin]": "binarni sat",
        "Name[sr]": "бинарни сат",
        "Name[sv]": "Binärklocka",
        "Name[th]": "นาฬิกาไบนารี",
        "Name[tr]": "İkili Saat",
        "Name[uk]": "Двійковий годинник",
        "Name[wa]": "Ôrlodje binaire",
        "Name[x-test]": "xxBinary Clockxx",
        "Name[zh_CN]": "二进制时钟",
        "Name[zh_TW]": "二進制時鐘",
        "ServiceTypes": [
            "Plasma/Applet"
        ],
        "Version": "2.0",
        "Website": "plasma.kde.org"
    },
    "X-Plasma-API": "declarativeappletscript",
    "X-Plasma-MainScript": "ui/main.qml",
    "X-Plasma-Provides": [
        "org.kde.plasma.time",
        "org.kde.plasma.date"
    ],
    "X-Plasma-RemoteLocation": ""
}
