{
    "KPlugin": {
        "Authors": [
            {
                "Email": "plasma-devel@kde.org",
                "Name": "The Plasma Team"
            }
        ],
        "Category": "Windows and Tasks",
        "Dependencies": [
        ],
        "Description": "Switch between virtual desktops",
        "Description[ar]": "بدّل بين أسطح المكتب الوهمية",
        "Description[be@latin]": "Pieraklučeńnie virtualnych stałoŭ",
        "Description[bg]": "Превключване между работните плотове",
        "Description[bs]": "Prebacujte virtuelne površi",
        "Description[ca@valencia]": "Commuta entre escriptoris virtuals",
        "Description[ca]": "Commuta entre escriptoris virtuals",
        "Description[cs]": "Přepínač mezi virtuálními plochami",
        "Description[da]": "Skift mellem virtuelle skriveborde",
        "Description[de]": "Ermöglicht Ihnen das Wechseln zwischen virtuellen Arbeitsflächen.",
        "Description[el]": "Εναλλαγή μεταξύ εικονικών επιφανειών εργασίας",
        "Description[en_GB]": "Switch between virtual desktops",
        "Description[eo]": "Komuti inter virtualaj labortabloj",
        "Description[es]": "Cambiar entre escritorios virtuales",
        "Description[et]": "Lülitumine virtuaalsete töölaudade vahel",
        "Description[eu]": "Aldatu alegiazko mahaigain batetik bestera",
        "Description[fi]": "Vaihda virtuaalityöpöytää",
        "Description[fr]": "Passe d'un bureau virtuel à l'autre",
        "Description[fy]": "Wikselje tusken firuele buroblêden",
        "Description[ga]": "Athraigh an deasc fhíorúil",
        "Description[gl]": "Cambia entre escritorios virtuais",
        "Description[gu]": "વર્ચ્યુઅલ ડેસ્કટોપ્સની વચ્ચે બદલો",
        "Description[he]": "משמש למעבר בין שולחנות עבודה וירטואלים",
        "Description[hi]": "आभासी डेस्कटॉप्स के बीच स्विच करें",
        "Description[hne]": "आभासी डेस्कटाप मं स्विच करव",
        "Description[hr]": "Mijenjanje virtualnih radnih površina",
        "Description[hsb]": "Mjez wirtuelnymi dźěłowymi powjerchami tam a sem skakać",
        "Description[hu]": "Virtuális asztalok közötti váltásra szolgáló elem",
        "Description[ia]": "Commuta  inter scriptorios virtual",
        "Description[id]": "Berpindah di antara desktop virtual",
        "Description[is]": "Skiptir milli sýndarskjáborða",
        "Description[it]": "Passa ad altri desktop virtuali",
        "Description[ja]": "仮想デスクトップを切り替えます",
        "Description[kk]": "Виртуалды үстелдерді ақтару",
        "Description[km]": "ប្ដូរ​រវាង​ផ្ទៃតុ​និម្មិត",
        "Description[kn]": "ವಾಸ್ತವಪ್ರಾಯ ಗಣಕತೆರೆಗಳ ನಡುವೆ ಅಂತರಿಸು",
        "Description[ko]": "가상 데스크톱 사이를 전환합니다",
        "Description[lt]": "Persijungti tarp virtualių darbalaukių",
        "Description[lv]": "Pārslēgties starp virtuālām darbvirsmām",
        "Description[mk]": "Менување меѓу виртуелни раб. површини",
        "Description[ml]": "വര്‍ച്ചുവല്‍ പണിയിടങ്ങള്‍ തമ്മില്‍ മാറുക",
        "Description[mr]": "आभासी डेस्कटॉप बदला",
        "Description[nb]": "Bytt mellom virtuelle skrivebord",
        "Description[nds]": "Twischen Schriefdischen wesseln",
        "Description[nl]": "Schakel tussen virtuele bureaubladen",
        "Description[nn]": "Byt mellom virtuelle skrivebord",
        "Description[or]": "ଆଭାସୀ ଡ଼େସ୍କଟପଗୁଡ଼ିକ ମଧ୍ଯରେ ଅଦଳ ବଦଳ କରନ୍ତୁ",
        "Description[pa]": "ਵਰਚੁਅਲ ਡੈਸਕਟਾਪਾਂ ਵਿੱਚ ਸਵਿੱਚ ਕਰੋ",
        "Description[pl]": "Przełącza między pulpitami",
        "Description[pt]": "Mudar de ecrã virtual",
        "Description[pt_BR]": "Alterna entre áreas de trabalho virtuais",
        "Description[ro]": "Comută între birouri virtuale",
        "Description[ru]": "Переключение между рабочими столами",
        "Description[si]": "අතත්‍ය වැඩතල අතර මාරුවන්න",
        "Description[sk]": "Prepínanie medzi virtuálnymi plochami",
        "Description[sl]": "Preklapljajte med navideznimi namizji",
        "Description[sr@ijekavian]": "Пребацујте виртуелне површи",
        "Description[sr@ijekavianlatin]": "Prebacujte virtuelne površi",
        "Description[sr@latin]": "Prebacujte virtuelne površi",
        "Description[sr]": "Пребацујте виртуелне површи",
        "Description[sv]": "Byt mellan virtuella skrivbord",
        "Description[ta]": "Switch between virtual desktops",
        "Description[te]": "వర్చ్యువల్ రంగస్థలముల మధ్యన మారుము",
        "Description[tg]": "Переключение между рабочими столами",
        "Description[th]": "สลับไปมาระหว่างพื้นที่ทำงานเสมือน",
        "Description[tr]": "Sanal masaüstleri arasında gezin",
        "Description[ug]": "مەۋھۇم ئۈستەلئۈستىلىرىنى ئالماشتۇر",
        "Description[uk]": "Перемкніть віртуальні стільниці",
        "Description[wa]": "Passer d' on forveyou scribanne a èn ôte",
        "Description[x-test]": "xxSwitch between virtual desktopsxx",
        "Description[zh_CN]": "在虚拟桌面间切换",
        "Description[zh_TW]": "在虛擬桌面間切換",
        "EnabledByDefault": true,
        "Icon": "user-desktop",
        "Id": "org.kde.plasma.pager",
        "License": "GPL-2.0+",
        "Name": "Pager",
        "Name[af]": "Pager",
        "Name[ar]": "المبدّل",
        "Name[be@latin]": "Stały",
        "Name[bg]": "Пейджър",
        "Name[bn]": "পেজার",
        "Name[bn_IN]": "পেজার",
        "Name[bs]": "Pejdžer",
        "Name[ca@valencia]": "Paginador",
        "Name[ca]": "Paginador",
        "Name[cs]": "Přepínač ploch",
        "Name[csb]": "Pager",
        "Name[da]": "Skrivebordsvælger",
        "Name[de]": "Arbeitsflächen-Umschalter",
        "Name[el]": "Πίνακας σελίδων",
        "Name[en_GB]": "Pager",
        "Name[eo]": "Paĝilo",
        "Name[es]": "Paginador",
        "Name[et]": "Peiler",
        "Name[eu]": "Bilagailua",
        "Name[fa]": "پی‌جو",
        "Name[fi]": "Sivutin",
        "Name[fr]": "Gestionnaire de bureaux",
        "Name[fy]": "Semafoan",
        "Name[ga]": "Brabhsálaí Leathanach",
        "Name[gl]": "Paxinador",
        "Name[gu]": "પેજર",
        "Name[he]": "Pager",
        "Name[hi]": "पेजर",
        "Name[hne]": "पेजर",
        "Name[hr]": "Pager",
        "Name[hsb]": "Listowar",
        "Name[hu]": "Asztalváltó",
        "Name[ia]": "Pager",
        "Name[id]": "Pemisah",
        "Name[is]": "Flettir",
        "Name[it]": "Cambiadesktop",
        "Name[ja]": "ページャ",
        "Name[kk]": "Ақтарғыш",
        "Name[km]": "Pager",
        "Name[kn]": "ಪುಟವೀಕ್ಷಕ (ಪೇಜರ್)",
        "Name[ko]": "호출기",
        "Name[ku]": "Rûpelker",
        "Name[lt]": "Puslapiuotojas",
        "Name[lv]": "Lapotājs",
        "Name[mai]": "पेजर",
        "Name[mk]": "Пејџер",
        "Name[ml]": "പേജര്‍",
        "Name[mr]": "पेजर",
        "Name[nb]": "Skrivebordsbytter",
        "Name[nds]": "Schriefdisch-Översicht",
        "Name[ne]": "पेजर",
        "Name[nl]": "Pager",
        "Name[nn]": "Skrivebordsbytar",
        "Name[oc]": "Recebedor d'apèl",
        "Name[or]": "ପେଜର",
        "Name[pa]": "ਪੇਜ਼ਰ",
        "Name[pl]": "Przełącznik pulpitów",
        "Name[pt]": "Paginador",
        "Name[pt_BR]": "Paginador",
        "Name[ro]": "Paginator",
        "Name[ru]": "Переключение рабочих столов",
        "Name[se]": "Čállinbeavdemolsojeaddj",
        "Name[si]": "පේජරය",
        "Name[sk]": "Prepínač plôch",
        "Name[sl]": "Pozivnik",
        "Name[sr@ijekavian]": "листач",
        "Name[sr@ijekavianlatin]": "listač",
        "Name[sr@latin]": "listač",
        "Name[sr]": "листач",
        "Name[sv]": "Skrivbordsvisning",
        "Name[ta]": "Pager",
        "Name[te]": "పేజర్",
        "Name[tg]": "Пейҷер",
        "Name[th]": "สลับหน้าพื้นที่ทำงาน",
        "Name[tr]": "Sayfalayıcı",
        "Name[ug]": "چاقىرغۇ",
        "Name[uk]": "Пейджер",
        "Name[vi]": "Pager",
        "Name[wa]": "Pager",
        "Name[x-test]": "xxPagerxx",
        "Name[zh_CN]": "分页器",
        "Name[zh_TW]": "虛擬桌面管理器",
        "ServiceTypes": [
            "Plasma/Applet"
        ],
        "Version": "4.0",
        "Website": "http://userbase.kde.org/Plasma/Pager"
    },
    "X-Plasma-API": "declarativeappletscript",
    "X-Plasma-MainScript": "ui/main.qml",
    "X-Plasma-Provides": [
        "org.kde.plasma.virtualdesktops"
    ]
}
