May  2 12:52:55 anthares /usr/sbin/gpm[4439]: *** info [daemon/startup.c(136)]: 
May  2 12:52:55 anthares /usr/sbin/gpm[4439]: Started gpm successfully. Entered daemon mode.
May  2 12:52:55 anthares /usr/sbin/gpm[4439]: *** info [mice.c(1990)]: 
May  2 12:52:55 anthares /usr/sbin/gpm[4439]: imps2: Auto-detected intellimouse PS/2
May  2 12:53:14 anthares shutdown[4463]: shutting down for system halt
Jun  6 00:03:01 anthares /usr/sbin/gpm[3844]: *** info [daemon/startup.c(136)]: 
Jun  6 00:03:01 anthares /usr/sbin/gpm[3844]: Started gpm successfully. Entered daemon mode.
Jun  6 00:03:01 anthares /usr/sbin/gpm[3844]: *** info [mice.c(1990)]: 
Jun  6 00:03:01 anthares /usr/sbin/gpm[3844]: imps2: Auto-detected intellimouse PS/2
Jun  6 08:27:32 anthares lt-tst-pam_end: PAM pam_end: NULL pam handle passed
Jun  6 08:27:32 anthares lt-tst-pam_fail_delay: PAM pam_fail_delay: NULL pam handle passed
Jun  6 08:27:33 anthares lt-tst-pam_open_session: PAM pam_open_session: NULL pam handle passed
Jun  6 08:27:33 anthares lt-tst-pam_close_session: PAM pam_close_session: NULL pam handle passed
Jun  6 08:27:33 anthares lt-tst-pam_acct_mgmt: PAM pam_acct_mgmt: NULL pam handle passed
Jun  6 08:27:33 anthares lt-tst-pam_authenticate: PAM pam_authenticate: NULL pam handle passed
Jun  6 08:27:33 anthares lt-tst-pam_chauthtok: PAM pam_chauthtok: NULL pam handle passed
Jun  6 08:27:33 anthares lt-tst-pam_setcred: PAM pam_setcred: NULL pam handle passed
Jun  6 08:27:33 anthares lt-tst-pam_get_item: PAM pam_get_item: NULL pam handle passed
Jun  6 08:27:33 anthares lt-tst-pam_set_item: PAM pam_set_item: NULL pam handle passed
Jun  6 08:27:33 anthares lt-tst-pam_getenvlist: PAM pam_getenvlist: NULL pam handle passed
Jun  6 08:27:33 anthares lt-tst-pam_get_user: PAM pam_get_user: NULL pam handle passed
Jun  6 08:27:33 anthares lt-tst-pam_set_data: PAM pam_set_data: NULL pam handle passed
Jun  6 18:40:20 anthares shutdown[16094]: shutting down for system reboot
Jun  6 18:40:21 anthares /usr/sbin/gpm[3844]: *** info [mice.c(1990)]: 
Jun  6 18:40:21 anthares /usr/sbin/gpm[3844]: imps2: Auto-detected intellimouse PS/2
Jun 18 00:21:06 anthares /usr/sbin/gpm[3949]: *** info [daemon/startup.c(136)]: 
Jun 18 00:21:06 anthares /usr/sbin/gpm[3949]: Started gpm successfully. Entered daemon mode.
Jun 18 00:21:06 anthares /usr/sbin/gpm[3949]: *** info [mice.c(1990)]: 
Jun 18 00:21:06 anthares /usr/sbin/gpm[3949]: imps2: Auto-detected intellimouse PS/2
Jun 18 18:24:48 anthares /usr/sbin/gpm[4006]: *** info [daemon/check_uniqueness.c(40)]: 
Jun 18 18:24:48 anthares /usr/sbin/gpm[4006]: Removing stale pid file /var/run/gpm.pid
Jun 18 18:24:48 anthares /usr/sbin/gpm[4006]: *** info [daemon/startup.c(136)]: 
Jun 18 18:24:48 anthares /usr/sbin/gpm[4006]: Started gpm successfully. Entered daemon mode.
Jun 18 18:24:48 anthares /usr/sbin/gpm[4006]: *** info [mice.c(1990)]: 
Jun 18 18:24:48 anthares /usr/sbin/gpm[4006]: imps2: Auto-detected intellimouse PS/2
Jun 18 18:53:37 anthares pulseaudio[4641]: [pulseaudio] authkey.c: Failed to open cookie file '/home/bruno/.config/pulse/cookie': No such file or directory
Jun 18 18:53:37 anthares pulseaudio[4641]: [pulseaudio] authkey.c: Failed to load authentication key '/home/bruno/.config/pulse/cookie': No such file or directory
Jun 18 18:53:37 anthares pulseaudio[4641]: [pulseaudio] authkey.c: Failed to open cookie file '/home/bruno/.pulse-cookie': No such file or directory
Jun 18 18:53:37 anthares pulseaudio[4641]: [pulseaudio] authkey.c: Failed to load authentication key '/home/bruno/.pulse-cookie': No such file or directory
Jun 18 18:54:03 anthares pulseaudio[4641]: [pulseaudio] module-console-kit.c: GetSessionsForUnixUser() call failed: org.freedesktop.DBus.Error.TimedOut: Failed to activate service 'org.freedesktop.ConsoleKit': timed out (service_start_timeout=25000ms)
Jun 18 18:54:03 anthares pulseaudio[4641]: [pulseaudio] module.c: Failed to load module "module-console-kit" (argument: ""): initialization failed.
Jun 18 18:54:03 anthares pulseaudio[4641]: [pulseaudio] main.c: Module load failed.
Jun 18 18:54:03 anthares pulseaudio[4641]: [pulseaudio] main.c: Failed to initialize daemon.
Jun 18 18:54:03 anthares pulseaudio[4632]: [pulseaudio] main.c: Daemon startup failed.
Jun 18 18:54:29 anthares pulseaudio[4718]: [pulseaudio] module-console-kit.c: GetSessionsForUnixUser() call failed: org.freedesktop.DBus.Error.NoReply: Did not receive a reply. Possible causes include: the remote application did not send a reply, the message bus security policy blocked the reply, the reply timeout expired, or the network connection was broken.
Jun 18 18:54:29 anthares pulseaudio[4718]: [pulseaudio] module.c: Failed to load module "module-console-kit" (argument: ""): initialization failed.
Jun 18 18:54:29 anthares pulseaudio[4718]: [pulseaudio] main.c: Module load failed.
Jun 18 18:54:29 anthares pulseaudio[4718]: [pulseaudio] main.c: Failed to initialize daemon.
Jun 18 18:54:29 anthares pulseaudio[4715]: [pulseaudio] main.c: Daemon startup failed.
Jun 18 18:57:56 anthares /usr/sbin/gpm[4006]: *** info [mice.c(1990)]: 
Jun 18 18:57:56 anthares /usr/sbin/gpm[4006]: imps2: Auto-detected intellimouse PS/2
Jun 18 18:59:20 anthares pulseaudio[4922]: [pulseaudio] module-console-kit.c: GetSessionsForUnixUser() call failed: org.freedesktop.DBus.Error.TimedOut: Failed to activate service 'org.freedesktop.ConsoleKit': timed out (service_start_timeout=25000ms)
Jun 18 18:59:20 anthares pulseaudio[4922]: [pulseaudio] module.c: Failed to load module "module-console-kit" (argument: ""): initialization failed.
Jun 18 18:59:20 anthares pulseaudio[4922]: [pulseaudio] main.c: Module load failed.
Jun 18 18:59:20 anthares pulseaudio[4922]: [pulseaudio] main.c: Failed to initialize daemon.
Jun 18 18:59:20 anthares pulseaudio[4916]: [pulseaudio] main.c: Daemon startup failed.
Jun 18 18:59:46 anthares pulseaudio[4991]: [pulseaudio] module-console-kit.c: GetSessionsForUnixUser() call failed: org.freedesktop.DBus.Error.TimedOut: Failed to activate service 'org.freedesktop.ConsoleKit': timed out (service_start_timeout=25000ms)
Jun 18 18:59:46 anthares pulseaudio[4991]: [pulseaudio] module.c: Failed to load module "module-console-kit" (argument: ""): initialization failed.
Jun 18 18:59:46 anthares pulseaudio[4991]: [pulseaudio] main.c: Module load failed.
Jun 18 18:59:46 anthares pulseaudio[4991]: [pulseaudio] main.c: Failed to initialize daemon.
Jun 18 18:59:46 anthares pulseaudio[4988]: [pulseaudio] main.c: Daemon startup failed.
Jun 18 19:01:49 anthares shutdown[5040]: shutting down for system reboot
Jun 18 19:02:38 anthares /usr/sbin/gpm[3993]: *** info [daemon/startup.c(136)]: 
Jun 18 19:02:38 anthares /usr/sbin/gpm[3993]: Started gpm successfully. Entered daemon mode.
Jun 18 19:02:38 anthares /usr/sbin/gpm[3993]: *** info [mice.c(1990)]: 
Jun 18 19:02:38 anthares /usr/sbin/gpm[3993]: imps2: Auto-detected intellimouse PS/2
Jun 18 19:04:14 anthares pulseaudio[4205]: [pulseaudio] module-console-kit.c: GetSessionsForUnixUser() call failed: org.freedesktop.DBus.Error.TimedOut: Failed to activate service 'org.freedesktop.ConsoleKit': timed out (service_start_timeout=25000ms)
Jun 18 19:04:14 anthares pulseaudio[4205]: [pulseaudio] module.c: Failed to load module "module-console-kit" (argument: ""): initialization failed.
Jun 18 19:04:14 anthares pulseaudio[4205]: [pulseaudio] main.c: Module load failed.
Jun 18 19:04:14 anthares pulseaudio[4205]: [pulseaudio] main.c: Failed to initialize daemon.
Jun 18 19:04:14 anthares pulseaudio[4188]: [pulseaudio] main.c: Daemon startup failed.
Jun 18 19:04:40 anthares pulseaudio[4241]: [pulseaudio] module-console-kit.c: GetSessionsForUnixUser() call failed: org.freedesktop.DBus.Error.NoReply: Did not receive a reply. Possible causes include: the remote application did not send a reply, the message bus security policy blocked the reply, the reply timeout expired, or the network connection was broken.
Jun 18 19:04:40 anthares pulseaudio[4241]: [pulseaudio] module.c: Failed to load module "module-console-kit" (argument: ""): initialization failed.
Jun 18 19:04:40 anthares pulseaudio[4241]: [pulseaudio] main.c: Module load failed.
Jun 18 19:04:40 anthares pulseaudio[4241]: [pulseaudio] main.c: Failed to initialize daemon.
Jun 18 19:04:40 anthares pulseaudio[4238]: [pulseaudio] main.c: Daemon startup failed.
Jun 18 19:25:43 anthares /usr/sbin/gpm[3988]: *** info [daemon/check_uniqueness.c(40)]: 
Jun 18 19:25:43 anthares /usr/sbin/gpm[3988]: Removing stale pid file /var/run/gpm.pid
Jun 18 19:25:43 anthares /usr/sbin/gpm[3988]: *** info [daemon/startup.c(136)]: 
Jun 18 19:25:43 anthares /usr/sbin/gpm[3988]: Started gpm successfully. Entered daemon mode.
Jun 18 19:25:44 anthares /usr/sbin/gpm[3988]: *** info [mice.c(1990)]: 
Jun 18 19:25:44 anthares /usr/sbin/gpm[3988]: imps2: Auto-detected intellimouse PS/2
Jun 18 19:27:21 anthares pulseaudio[4205]: [pulseaudio] module-console-kit.c: GetSessionsForUnixUser() call failed: org.freedesktop.DBus.Error.TimedOut: Failed to activate service 'org.freedesktop.ConsoleKit': timed out (service_start_timeout=25000ms)
Jun 18 19:27:21 anthares pulseaudio[4205]: [pulseaudio] module.c: Failed to load module "module-console-kit" (argument: ""): initialization failed.
Jun 18 19:27:21 anthares pulseaudio[4205]: [pulseaudio] main.c: Module load failed.
Jun 18 19:27:21 anthares pulseaudio[4205]: [pulseaudio] main.c: Failed to initialize daemon.
Jun 18 19:27:21 anthares pulseaudio[4201]: [pulseaudio] main.c: Daemon startup failed.
Jun 18 19:27:47 anthares pulseaudio[4253]: [pulseaudio] module-console-kit.c: GetSessionsForUnixUser() call failed: org.freedesktop.DBus.Error.NoReply: Did not receive a reply. Possible causes include: the remote application did not send a reply, the message bus security policy blocked the reply, the reply timeout expired, or the network connection was broken.
Jun 18 19:27:47 anthares pulseaudio[4253]: [pulseaudio] module.c: Failed to load module "module-console-kit" (argument: ""): initialization failed.
Jun 18 19:27:47 anthares pulseaudio[4253]: [pulseaudio] main.c: Module load failed.
Jun 18 19:27:47 anthares pulseaudio[4253]: [pulseaudio] main.c: Failed to initialize daemon.
Jun 18 19:27:47 anthares pulseaudio[4250]: [pulseaudio] main.c: Daemon startup failed.
Jun 18 20:56:52 anthares shutdown[4448]: shutting down for system halt
Jun 18 22:08:38 anthares /usr/sbin/gpm[4017]: *** info [daemon/startup.c(136)]: 
Jun 18 22:08:38 anthares /usr/sbin/gpm[4017]: Started gpm successfully. Entered daemon mode.
Jun 18 22:08:38 anthares /usr/sbin/gpm[4017]: *** info [mice.c(1990)]: 
Jun 18 22:08:38 anthares /usr/sbin/gpm[4017]: imps2: Auto-detected intellimouse PS/2
Jun 18 22:10:14 anthares pulseaudio[4243]: [pulseaudio] module-console-kit.c: GetSessionsForUnixUser() call failed: org.freedesktop.DBus.Error.TimedOut: Failed to activate service 'org.freedesktop.ConsoleKit': timed out (service_start_timeout=25000ms)
Jun 18 22:10:14 anthares pulseaudio[4243]: [pulseaudio] module.c: Failed to load module "module-console-kit" (argument: ""): initialization failed.
Jun 18 22:10:14 anthares pulseaudio[4243]: [pulseaudio] main.c: Module load failed.
Jun 18 22:10:14 anthares pulseaudio[4243]: [pulseaudio] main.c: Failed to initialize daemon.
Jun 18 22:10:14 anthares pulseaudio[4235]: [pulseaudio] main.c: Daemon startup failed.
Jun 18 22:10:40 anthares pulseaudio[4279]: [pulseaudio] module-console-kit.c: GetSessionsForUnixUser() call failed: org.freedesktop.DBus.Error.NoReply: Did not receive a reply. Possible causes include: the remote application did not send a reply, the message bus security policy blocked the reply, the reply timeout expired, or the network connection was broken.
Jun 18 22:10:40 anthares pulseaudio[4279]: [pulseaudio] module.c: Failed to load module "module-console-kit" (argument: ""): initialization failed.
Jun 18 22:10:40 anthares pulseaudio[4279]: [pulseaudio] main.c: Module load failed.
Jun 18 22:10:40 anthares pulseaudio[4279]: [pulseaudio] main.c: Failed to initialize daemon.
Jun 18 22:10:40 anthares pulseaudio[4276]: [pulseaudio] main.c: Daemon startup failed.
Jun 18 23:01:40 anthares shutdown[8057]: shutting down for system halt
Jun 29 11:38:50 anthares /usr/sbin/gpm[4565]: *** info [daemon/startup.c(136)]: 
Jun 29 11:38:50 anthares /usr/sbin/gpm[4565]: Started gpm successfully. Entered daemon mode.
Jun 29 11:38:50 anthares /usr/sbin/gpm[4565]: *** info [mice.c(1990)]: 
Jun 29 11:38:50 anthares /usr/sbin/gpm[4565]: imps2: Auto-detected intellimouse PS/2
Jun 29 11:40:59 anthares pulseaudio[4768]: [pulseaudio] module-console-kit.c: GetSessionsForUnixUser() call failed: org.freedesktop.DBus.Error.TimedOut: Failed to activate service 'org.freedesktop.ConsoleKit': timed out (service_start_timeout=25000ms)
Jun 29 11:40:59 anthares pulseaudio[4768]: [pulseaudio] module.c: Failed to load module "module-console-kit" (argument: ""): initialization failed.
Jun 29 11:40:59 anthares pulseaudio[4768]: [pulseaudio] main.c: Module load failed.
Jun 29 11:40:59 anthares pulseaudio[4768]: [pulseaudio] main.c: Failed to initialize daemon.
Jun 29 11:40:59 anthares pulseaudio[4765]: [pulseaudio] main.c: Daemon startup failed.
Jun 29 11:41:26 anthares pulseaudio[4814]: [pulseaudio] module-console-kit.c: GetSessionsForUnixUser() call failed: org.freedesktop.DBus.Error.NoReply: Did not receive a reply. Possible causes include: the remote application did not send a reply, the message bus security policy blocked the reply, the reply timeout expired, or the network connection was broken.
Jun 29 11:41:26 anthares pulseaudio[4814]: [pulseaudio] module.c: Failed to load module "module-console-kit" (argument: ""): initialization failed.
Jun 29 11:41:26 anthares pulseaudio[4814]: [pulseaudio] main.c: Module load failed.
Jun 29 11:41:26 anthares pulseaudio[4814]: [pulseaudio] main.c: Failed to initialize daemon.
Jun 29 11:41:26 anthares pulseaudio[4811]: [pulseaudio] main.c: Daemon startup failed.
Jun 29 11:48:16 anthares shutdown[4840]: shutting down for system reboot
Jun 29 12:26:44 anthares /usr/sbin/gpm[4557]: *** info [daemon/startup.c(136)]: 
Jun 29 12:26:44 anthares /usr/sbin/gpm[4557]: Started gpm successfully. Entered daemon mode.
Jun 29 12:26:45 anthares /usr/sbin/gpm[4557]: *** info [mice.c(1990)]: 
Jun 29 12:26:45 anthares /usr/sbin/gpm[4557]: imps2: Auto-detected intellimouse PS/2
Jun 29 12:29:58 anthares pulseaudio[4807]: [pulseaudio] module-console-kit.c: GetSessionsForUnixUser() call failed: org.freedesktop.DBus.Error.TimedOut: Failed to activate service 'org.freedesktop.ConsoleKit': timed out (service_start_timeout=25000ms)
Jun 29 12:29:58 anthares pulseaudio[4807]: [pulseaudio] module.c: Failed to load module "module-console-kit" (argument: ""): initialization failed.
Jun 29 12:29:58 anthares pulseaudio[4807]: [pulseaudio] main.c: Module load failed.
Jun 29 12:29:58 anthares pulseaudio[4807]: [pulseaudio] main.c: Failed to initialize daemon.
Jun 29 12:29:58 anthares pulseaudio[4796]: [pulseaudio] main.c: Daemon startup failed.
Jun 29 12:30:24 anthares pulseaudio[4860]: [pulseaudio] module-console-kit.c: GetSessionsForUnixUser() call failed: org.freedesktop.DBus.Error.NoReply: Did not receive a reply. Possible causes include: the remote application did not send a reply, the message bus security policy blocked the reply, the reply timeout expired, or the network connection was broken.
Jun 29 12:30:24 anthares pulseaudio[4860]: [pulseaudio] module.c: Failed to load module "module-console-kit" (argument: ""): initialization failed.
Jun 29 12:30:24 anthares pulseaudio[4860]: [pulseaudio] main.c: Module load failed.
Jun 29 12:30:24 anthares pulseaudio[4860]: [pulseaudio] main.c: Failed to initialize daemon.
Jun 29 12:30:24 anthares pulseaudio[4857]: [pulseaudio] main.c: Daemon startup failed.
Jun 29 12:31:40 anthares /usr/sbin/gpm[4557]: *** info [mice.c(1990)]: 
Jun 29 12:31:40 anthares /usr/sbin/gpm[4557]: imps2: Auto-detected intellimouse PS/2
Jun 29 12:35:23 anthares shutdown[5097]: shutting down for system reboot
Jun 29 12:37:36 anthares /usr/sbin/gpm[4571]: *** info [daemon/startup.c(136)]: 
Jun 29 12:37:36 anthares /usr/sbin/gpm[4571]: Started gpm successfully. Entered daemon mode.
Jun 29 12:37:36 anthares /usr/sbin/gpm[4571]: *** info [mice.c(1990)]: 
Jun 29 12:37:36 anthares /usr/sbin/gpm[4571]: imps2: Auto-detected intellimouse PS/2
Jun 29 12:39:42 anthares pulseaudio[4785]: [pulseaudio] authkey.c: Failed to open cookie file '/home/bruno/.config/pulse/cookie': No such file or directory
Jun 29 12:39:42 anthares pulseaudio[4785]: [pulseaudio] authkey.c: Failed to load authentication key '/home/bruno/.config/pulse/cookie': No such file or directory
Jun 29 12:39:42 anthares pulseaudio[4785]: [pulseaudio] authkey.c: Failed to open cookie file '/home/bruno/.pulse-cookie': No such file or directory
Jun 29 12:39:42 anthares pulseaudio[4785]: [pulseaudio] authkey.c: Failed to load authentication key '/home/bruno/.pulse-cookie': No such file or directory
Jun 29 12:40:07 anthares pulseaudio[4785]: [pulseaudio] module-console-kit.c: GetSessionsForUnixUser() call failed: org.freedesktop.DBus.Error.NoReply: Did not receive a reply. Possible causes include: the remote application did not send a reply, the message bus security policy blocked the reply, the reply timeout expired, or the network connection was broken.
Jun 29 12:40:07 anthares pulseaudio[4785]: [pulseaudio] module.c: Failed to load module "module-console-kit" (argument: ""): initialization failed.
Jun 29 12:40:07 anthares pulseaudio[4785]: [pulseaudio] main.c: Module load failed.
Jun 29 12:40:07 anthares pulseaudio[4785]: [pulseaudio] main.c: Failed to initialize daemon.
Jun 29 12:40:07 anthares pulseaudio[4781]: [pulseaudio] main.c: Daemon startup failed.
Jun 29 12:40:33 anthares pulseaudio[4853]: [pulseaudio] module-console-kit.c: GetSessionsForUnixUser() call failed: org.freedesktop.DBus.Error.NoReply: Did not receive a reply. Possible causes include: the remote application did not send a reply, the message bus security policy blocked the reply, the reply timeout expired, or the network connection was broken.
Jun 29 12:40:33 anthares pulseaudio[4853]: [pulseaudio] module.c: Failed to load module "module-console-kit" (argument: ""): initialization failed.
Jun 29 12:40:33 anthares pulseaudio[4853]: [pulseaudio] main.c: Module load failed.
Jun 29 12:40:33 anthares pulseaudio[4853]: [pulseaudio] main.c: Failed to initialize daemon.
Jun 29 12:40:33 anthares pulseaudio[4850]: [pulseaudio] main.c: Daemon startup failed.
Jun 29 12:43:35 anthares shutdown[4927]: shutting down for system reboot
Jun 29 12:44:42 anthares /usr/sbin/gpm[4557]: *** info [daemon/startup.c(136)]: 
Jun 29 12:44:42 anthares /usr/sbin/gpm[4557]: Started gpm successfully. Entered daemon mode.
Jun 29 12:44:42 anthares /usr/sbin/gpm[4557]: *** info [mice.c(1990)]: 
Jun 29 12:44:42 anthares /usr/sbin/gpm[4557]: imps2: Auto-detected intellimouse PS/2
Jun 29 12:44:58 anthares shutdown[4580]: shutting down for system reboot
Jul  1 02:06:10 anthares /usr/sbin/gpm[4559]: *** info [daemon/startup.c(136)]: 
Jul  1 02:06:10 anthares /usr/sbin/gpm[4559]: Started gpm successfully. Entered daemon mode.
Jul  1 02:06:10 anthares /usr/sbin/gpm[4559]: *** info [mice.c(1990)]: 
Jul  1 02:06:10 anthares /usr/sbin/gpm[4559]: imps2: Auto-detected intellimouse PS/2
Jul  1 02:07:57 anthares pulseaudio[4784]: [pulseaudio] module-console-kit.c: GetSessionsForUnixUser() call failed: org.freedesktop.DBus.Error.TimedOut: Failed to activate service 'org.freedesktop.ConsoleKit': timed out (service_start_timeout=25000ms)
Jul  1 02:07:57 anthares pulseaudio[4784]: [pulseaudio] module.c: Failed to load module "module-console-kit" (argument: ""): initialization failed.
Jul  1 02:07:57 anthares pulseaudio[4784]: [pulseaudio] main.c: Module load failed.
Jul  1 02:07:57 anthares pulseaudio[4784]: [pulseaudio] main.c: Failed to initialize daemon.
Jul  1 02:07:58 anthares pulseaudio[4770]: [pulseaudio] main.c: Daemon startup failed.
Jul  1 02:08:24 anthares pulseaudio[4817]: [pulseaudio] module-console-kit.c: GetSessionsForUnixUser() call failed: org.freedesktop.DBus.Error.NoReply: Did not receive a reply. Possible causes include: the remote application did not send a reply, the message bus security policy blocked the reply, the reply timeout expired, or the network connection was broken.
Jul  1 02:08:24 anthares pulseaudio[4817]: [pulseaudio] module.c: Failed to load module "module-console-kit" (argument: ""): initialization failed.
Jul  1 02:08:24 anthares pulseaudio[4817]: [pulseaudio] main.c: Module load failed.
Jul  1 02:08:24 anthares pulseaudio[4817]: [pulseaudio] main.c: Failed to initialize daemon.
Jul  1 02:08:24 anthares pulseaudio[4814]: [pulseaudio] main.c: Daemon startup failed.
Jul  1 02:33:47 anthares shutdown[5186]: shutting down for system reboot
Jul  1 10:58:10 anthares /usr/sbin/gpm[4557]: *** info [daemon/startup.c(136)]: 
Jul  1 10:58:10 anthares /usr/sbin/gpm[4557]: Started gpm successfully. Entered daemon mode.
Jul  1 10:58:11 anthares /usr/sbin/gpm[4557]: *** info [mice.c(1990)]: 
Jul  1 10:58:11 anthares /usr/sbin/gpm[4557]: imps2: Auto-detected intellimouse PS/2
Jul  1 12:23:53 anthares pulseaudio[30319]: [pulseaudio] module-console-kit.c: GetSessionsForUnixUser() call failed: org.freedesktop.DBus.Error.TimedOut: Failed to activate service 'org.freedesktop.ConsoleKit': timed out (service_start_timeout=25000ms)
Jul  1 12:23:53 anthares pulseaudio[30319]: [pulseaudio] module.c: Failed to load module "module-console-kit" (argument: ""): initialization failed.
Jul  1 12:23:53 anthares pulseaudio[30319]: [pulseaudio] main.c: Module load failed.
Jul  1 12:23:53 anthares pulseaudio[30319]: [pulseaudio] main.c: Falha em iniciar o daemon.
Jul  1 12:23:53 anthares pulseaudio[30310]: [pulseaudio] main.c: Falha na partida do daemon.
Jul  1 12:24:19 anthares pulseaudio[30368]: [pulseaudio] module-console-kit.c: GetSessionsForUnixUser() call failed: org.freedesktop.DBus.Error.NoReply: Did not receive a reply. Possible causes include: the remote application did not send a reply, the message bus security policy blocked the reply, the reply timeout expired, or the network connection was broken.
Jul  1 12:24:19 anthares pulseaudio[30368]: [pulseaudio] module.c: Failed to load module "module-console-kit" (argument: ""): initialization failed.
Jul  1 12:24:19 anthares pulseaudio[30368]: [pulseaudio] main.c: Module load failed.
Jul  1 12:24:19 anthares pulseaudio[30368]: [pulseaudio] main.c: Falha em iniciar o daemon.
Jul  1 12:24:19 anthares pulseaudio[30365]: [pulseaudio] main.c: Falha na partida do daemon.
Jul  1 12:37:04 anthares /usr/sbin/gpm[4601]: *** info [daemon/check_uniqueness.c(40)]: 
Jul  1 12:37:04 anthares /usr/sbin/gpm[4601]: Removing stale pid file /var/run/gpm.pid
Jul  1 12:37:04 anthares /usr/sbin/gpm[4601]: *** info [daemon/startup.c(136)]: 
Jul  1 12:37:04 anthares /usr/sbin/gpm[4601]: Started gpm successfully. Entered daemon mode.
Jul  1 12:37:04 anthares /usr/sbin/gpm[4601]: *** info [mice.c(1990)]: 
Jul  1 12:37:04 anthares /usr/sbin/gpm[4601]: imps2: Auto-detected intellimouse PS/2
Jul  1 12:39:18 anthares pulseaudio[4812]: [pulseaudio] module-console-kit.c: GetSessionsForUnixUser() call failed: org.freedesktop.DBus.Error.TimedOut: Failed to activate service 'org.freedesktop.ConsoleKit': timed out (service_start_timeout=25000ms)
Jul  1 12:39:18 anthares pulseaudio[4812]: [pulseaudio] module.c: Failed to load module "module-console-kit" (argument: ""): initialization failed.
Jul  1 12:39:18 anthares pulseaudio[4812]: [pulseaudio] main.c: Module load failed.
Jul  1 12:39:18 anthares pulseaudio[4812]: [pulseaudio] main.c: Falha em iniciar o daemon.
Jul  1 12:39:18 anthares pulseaudio[4809]: [pulseaudio] main.c: Falha na partida do daemon.
Jul  1 12:39:45 anthares pulseaudio[4868]: [pulseaudio] module-console-kit.c: GetSessionsForUnixUser() call failed: org.freedesktop.DBus.Error.NoReply: Did not receive a reply. Possible causes include: the remote application did not send a reply, the message bus security policy blocked the reply, the reply timeout expired, or the network connection was broken.
Jul  1 12:39:45 anthares pulseaudio[4868]: [pulseaudio] module.c: Failed to load module "module-console-kit" (argument: ""): initialization failed.
Jul  1 12:39:45 anthares pulseaudio[4868]: [pulseaudio] main.c: Module load failed.
Jul  1 12:39:45 anthares pulseaudio[4868]: [pulseaudio] main.c: Falha em iniciar o daemon.
Jul  1 12:39:45 anthares pulseaudio[4864]: [pulseaudio] main.c: Falha na partida do daemon.
Jul  1 12:48:40 anthares shutdown[5133]: shutting down for system reboot
Jul  2 00:02:17 anthares /usr/sbin/gpm[4596]: *** info [daemon/startup.c(136)]: 
Jul  2 00:02:18 anthares /usr/sbin/gpm[4596]: Started gpm successfully. Entered daemon mode.
Jul  2 00:02:18 anthares /usr/sbin/gpm[4596]: *** info [mice.c(1990)]: 
Jul  2 00:02:18 anthares /usr/sbin/gpm[4596]: imps2: Auto-detected intellimouse PS/2
Jul  2 00:14:24 anthares shutdown[4612]: shutting down for system halt
Jul 23 23:39:50 anthares /usr/sbin/gpm[4580]: *** info [daemon/startup.c(136)]: 
Jul 23 23:39:50 anthares /usr/sbin/gpm[4580]: Started gpm successfully. Entered daemon mode.
Jul 23 23:39:50 anthares /usr/sbin/gpm[4580]: *** info [mice.c(1990)]: 
Jul 23 23:39:50 anthares /usr/sbin/gpm[4580]: imps2: Auto-detected intellimouse PS/2
Jul 23 23:45:19 anthares shutdown[4833]: shutting down for system halt
Jul 24 07:17:56 anthares /usr/sbin/gpm[4561]: *** info [daemon/startup.c(136)]: 
Jul 24 07:17:56 anthares /usr/sbin/gpm[4561]: Started gpm successfully. Entered daemon mode.
Jul 24 07:17:56 anthares /usr/sbin/gpm[4561]: *** info [mice.c(1990)]: 
Jul 24 07:17:56 anthares /usr/sbin/gpm[4561]: imps2: Auto-detected intellimouse PS/2
Jul 24 07:19:54 anthares pulseaudio[4784]: [pulseaudio] module-console-kit.c: GetSessionsForUnixUser() call failed: org.freedesktop.DBus.Error.TimedOut: Failed to activate service 'org.freedesktop.ConsoleKit': timed out (service_start_timeout=25000ms)
Jul 24 07:19:54 anthares pulseaudio[4784]: [pulseaudio] module.c: Failed to load module "module-console-kit" (argument: ""): initialization failed.
Jul 24 07:19:54 anthares pulseaudio[4784]: [pulseaudio] main.c: Module load failed.
Jul 24 07:19:54 anthares pulseaudio[4784]: [pulseaudio] main.c: Falha em iniciar o daemon.
Jul 24 07:19:54 anthares pulseaudio[4771]: [pulseaudio] main.c: Falha na partida do daemon.
Jul 24 07:20:21 anthares pulseaudio[4816]: [pulseaudio] module-console-kit.c: GetSessionsForUnixUser() call failed: org.freedesktop.DBus.Error.NoReply: Did not receive a reply. Possible causes include: the remote application did not send a reply, the message bus security policy blocked the reply, the reply timeout expired, or the network connection was broken.
Jul 24 07:20:21 anthares pulseaudio[4816]: [pulseaudio] module.c: Failed to load module "module-console-kit" (argument: ""): initialization failed.
Jul 24 07:20:21 anthares pulseaudio[4816]: [pulseaudio] main.c: Module load failed.
Jul 24 07:20:21 anthares pulseaudio[4816]: [pulseaudio] main.c: Falha em iniciar o daemon.
Jul 24 07:20:21 anthares pulseaudio[4813]: [pulseaudio] main.c: Falha na partida do daemon.
Jul 24 07:23:37 anthares shutdown[4878]: shutting down for system halt
Jul 24 23:11:11 anthares /usr/sbin/gpm[4580]: *** info [daemon/startup.c(136)]: 
Jul 24 23:11:11 anthares /usr/sbin/gpm[4580]: Started gpm successfully. Entered daemon mode.
Jul 24 23:11:11 anthares /usr/sbin/gpm[4580]: *** info [mice.c(1990)]: 
Jul 24 23:11:11 anthares /usr/sbin/gpm[4580]: imps2: Auto-detected intellimouse PS/2
Jul 24 23:12:56 anthares pulseaudio[4801]: [pulseaudio] module-console-kit.c: GetSessionsForUnixUser() call failed: org.freedesktop.DBus.Error.TimedOut: Failed to activate service 'org.freedesktop.ConsoleKit': timed out (service_start_timeout=25000ms)
Jul 24 23:12:56 anthares pulseaudio[4801]: [pulseaudio] module.c: Failed to load module "module-console-kit" (argument: ""): initialization failed.
Jul 24 23:12:56 anthares pulseaudio[4801]: [pulseaudio] main.c: Module load failed.
Jul 24 23:12:56 anthares pulseaudio[4801]: [pulseaudio] main.c: Falha em iniciar o daemon.
Jul 24 23:12:56 anthares pulseaudio[4797]: [pulseaudio] main.c: Falha na partida do daemon.
Jul 24 23:13:23 anthares pulseaudio[4839]: [pulseaudio] module-console-kit.c: GetSessionsForUnixUser() call failed: org.freedesktop.DBus.Error.NoReply: Did not receive a reply. Possible causes include: the remote application did not send a reply, the message bus security policy blocked the reply, the reply timeout expired, or the network connection was broken.
Jul 24 23:13:23 anthares pulseaudio[4839]: [pulseaudio] module.c: Failed to load module "module-console-kit" (argument: ""): initialization failed.
Jul 24 23:13:23 anthares pulseaudio[4839]: [pulseaudio] main.c: Module load failed.
Jul 24 23:13:23 anthares pulseaudio[4839]: [pulseaudio] main.c: Falha em iniciar o daemon.
Jul 24 23:13:23 anthares pulseaudio[4836]: [pulseaudio] main.c: Falha na partida do daemon.
Jul 24 23:21:25 anthares pulseaudio[5138]: [pulseaudio] module-console-kit.c: GetSessionsForUnixUser() call failed: org.freedesktop.DBus.Error.TimedOut: Failed to activate service 'org.freedesktop.ConsoleKit': timed out (service_start_timeout=25000ms)
Jul 24 23:21:25 anthares pulseaudio[5138]: [pulseaudio] module.c: Failed to load module "module-console-kit" (argument: ""): initialization failed.
Jul 24 23:21:25 anthares pulseaudio[5138]: [pulseaudio] main.c: Module load failed.
Jul 24 23:21:25 anthares pulseaudio[5138]: [pulseaudio] main.c: Falha em iniciar o daemon.
Jul 24 23:21:25 anthares pulseaudio[5135]: [pulseaudio] main.c: Falha na partida do daemon.
Jul 24 23:22:20 anthares shutdown[5150]: shutting down for system reboot
Jul 24 23:45:35 anthares /usr/sbin/gpm[4641]: *** info [daemon/startup.c(136)]: 
Jul 24 23:45:35 anthares /usr/sbin/gpm[4641]: Started gpm successfully. Entered daemon mode.
Jul 24 23:45:35 anthares /usr/sbin/gpm[4641]: *** info [mice.c(1990)]: 
Jul 24 23:45:35 anthares /usr/sbin/gpm[4641]: imps2: Auto-detected intellimouse PS/2
Jul 25 00:40:00 anthares pulseaudio[32715]: [pulseaudio] module-console-kit.c: GetSessionsForUnixUser() call failed: org.freedesktop.DBus.Error.TimedOut: Failed to activate service 'org.freedesktop.ConsoleKit': timed out (service_start_timeout=25000ms)
Jul 25 00:40:00 anthares pulseaudio[32715]: [pulseaudio] module.c: Failed to load module "module-console-kit" (argument: ""): initialization failed.
Jul 25 00:40:00 anthares pulseaudio[32715]: [pulseaudio] main.c: Module load failed.
Jul 25 00:40:00 anthares pulseaudio[32715]: [pulseaudio] main.c: Falha em iniciar o daemon.
Jul 25 00:40:00 anthares pulseaudio[32701]: [pulseaudio] main.c: Falha na partida do daemon.
Jul 25 00:40:26 anthares pulseaudio[368]: [pulseaudio] module-console-kit.c: GetSessionsForUnixUser() call failed: org.freedesktop.DBus.Error.NoReply: Did not receive a reply. Possible causes include: the remote application did not send a reply, the message bus security policy blocked the reply, the reply timeout expired, or the network connection was broken.
Jul 25 00:40:26 anthares pulseaudio[368]: [pulseaudio] module.c: Failed to load module "module-console-kit" (argument: ""): initialization failed.
Jul 25 00:40:26 anthares pulseaudio[368]: [pulseaudio] main.c: Module load failed.
Jul 25 00:40:26 anthares pulseaudio[368]: [pulseaudio] main.c: Falha em iniciar o daemon.
Jul 25 00:40:26 anthares pulseaudio[365]: [pulseaudio] main.c: Falha na partida do daemon.
Jul 25 00:43:45 anthares shutdown[601]: shutting down for system reboot
Aug  5 13:06:37 anthares /usr/sbin/gpm[4707]: *** info [daemon/startup.c(136)]: 
Aug  5 13:06:37 anthares /usr/sbin/gpm[4707]: Started gpm successfully. Entered daemon mode.
Aug  5 13:06:37 anthares /usr/sbin/gpm[4707]: *** info [mice.c(1990)]: 
Aug  5 13:06:37 anthares /usr/sbin/gpm[4707]: imps2: Auto-detected intellimouse PS/2
Aug  5 13:19:48 anthares shutdown[4844]: shutting down for system reboot
Aug  5 13:20:40 anthares /usr/sbin/gpm[4562]: *** info [daemon/startup.c(136)]: 
Aug  5 13:20:40 anthares /usr/sbin/gpm[4562]: Started gpm successfully. Entered daemon mode.
Aug  5 13:20:40 anthares /usr/sbin/gpm[4562]: *** info [mice.c(1990)]: 
Aug  5 13:20:40 anthares /usr/sbin/gpm[4562]: imps2: Auto-detected intellimouse PS/2
Aug  5 13:41:20 anthares shutdown[4967]: shutting down for system reboot
Aug  5 13:41:56 anthares /usr/sbin/gpm[4551]: *** info [daemon/startup.c(136)]: 
Aug  5 13:41:56 anthares /usr/sbin/gpm[4551]: Started gpm successfully. Entered daemon mode.
Aug  5 13:41:56 anthares /usr/sbin/gpm[4551]: *** info [mice.c(1990)]: 
Aug  5 13:41:56 anthares /usr/sbin/gpm[4551]: imps2: Auto-detected intellimouse PS/2
Aug  5 13:51:58 anthares shutdown[4902]: shutting down for system reboot
Aug  5 13:59:11 anthares /usr/sbin/gpm[4565]: *** info [daemon/startup.c(136)]: 
Aug  5 13:59:11 anthares /usr/sbin/gpm[4565]: Started gpm successfully. Entered daemon mode.
Aug  5 13:59:11 anthares /usr/sbin/gpm[4565]: *** info [mice.c(1990)]: 
Aug  5 13:59:11 anthares /usr/sbin/gpm[4565]: imps2: Auto-detected intellimouse PS/2
Aug  5 14:01:24 anthares shutdown[4882]: shutting down for system reboot
