{
    "KPlugin": {
        "Authors": [
            {
                "Email": "kde@privat.broulik.de",
                "Name": "Kai Uwe Broulik"
            }
        ],
        "Category": "Date and Time",
        "Description": "Time displayed in a less precise format",
        "Description[ar]": "الوقت يظهر بتنسيق أقل دقة",
        "Description[bs]": "Vrijeme prikazano na manje precizan način",
        "Description[ca@valencia]": "Mostra l'hora en un format aproximat",
        "Description[ca]": "Mostra l'hora en un format aproximat",
        "Description[cs]": "Zobrazení času v nejasném formátu",
        "Description[da]": "Tiden vist i et mindre præcist format.",
        "Description[de]": "Zeigt die Zeit weniger genau an",
        "Description[el]": "Εμφάνιση ώρας σε μια λιγότερο ακριβή μορφή",
        "Description[en_GB]": "Time displayed in a less precise format",
        "Description[es]": "Mostrar la hora en un formato menos preciso",
        "Description[et]": "Aja näitamine mitte nii täpsel kujul",
        "Description[eu]": "Ordua era lausoan bistaratua",
        "Description[fi]": "Aika näytettynä epätarkassa muodossa",
        "Description[fr]": "Heure affichée avec un format peu précis",
        "Description[ga]": "Taispeáin an t-am i bhformáid níos lú beaichte",
        "Description[gl]": "Mostra a hora nun formato impreciso",
        "Description[he]": "השעה מוצגת בפורמט פחות מדייק",
        "Description[hr]": "Vrijeme prikazano u manje preciznim oblicima",
        "Description[hu]": "Kevésbé precíz formátumban megjelenített idő",
        "Description[is]": "Birtir tímann á minna nákvæmu sniði",
        "Description[it]": "Ora mostrata in modo meno preciso",
        "Description[ja]": "時間をあいまいな形式で表示します",
        "Description[kk]": "Уақытты жазу түрде көрсететін сағат",
        "Description[km]": "បាន​បង្ហាញ​ពេលវេលា​នៅក្នុងទ្រង់ទ្រាយជាក់លាក់",
        "Description[ko]": "개략적인 형태로 시간 보여주기",
        "Description[ku]": "Dem di teşeya xuyakirina kêmtir de tê nîşandan",
        "Description[lt]": "Laikas rodomas mažesnio tikslumo formatu",
        "Description[lv]": "Rāda laiku mazāk precīzā formātā",
        "Description[mr]": "कमी अचूकतेने वेळ दर्शविली जाते",
        "Description[nb]": "Viser tiden i et mindre presist format",
        "Description[nds]": "Tiet, wiest in en nich so akraat Formaat",
        "Description[nl]": "De tijd in iets minder nauwkeurig formaat",
        "Description[nn]": "Klokka – meir eller mindre nøyaktig",
        "Description[pl]": "Wyświetla czas w mniej precyzyjnym formacie",
        "Description[pt]": "Hora mostrada num formato menos exacto",
        "Description[pt_BR]": "Hora exibida em formato menos preciso",
        "Description[ro]": "Ora afișată într-un format mai puțin exact",
        "Description[ru]": "Время в словесной записи",
        "Description[sk]": "Čas zobrazený v menej presnom formáte",
        "Description[sl]": "Čas je prikazan v ne preveč natančni obliki",
        "Description[sr@ijekavian]": "Вријеме приказано на мање прецизан начин",
        "Description[sr@ijekavianlatin]": "Vrijeme prikazano na manje precizan način",
        "Description[sr@latin]": "Vreme prikazano na manje precizan način",
        "Description[sr]": "Време приказано на мање прецизан начин",
        "Description[sv]": "Tidvisning med ett mindre exakt format",
        "Description[th]": "แสดงเวลาในรูปแบบที่มีความแม่นยำน้อย",
        "Description[tr]": "Saati daha az belirli bir şekilde göster",
        "Description[uk]": "Час, показаний у менш точному форматі",
        "Description[wa]": "L' eure håynêye dins ene cogne moens precise",
        "Description[x-test]": "xxTime displayed in a less precise formatxx",
        "Description[zh_CN]": "以不精确格式显示的时间",
        "Description[zh_TW]": "以較不精確的方式顯示時間",
        "Icon": "preferences-system-time",
        "Id": "org.kde.plasma.fuzzyclock",
        "License": "GPL-2.0+",
        "Name": "Fuzzy Clock",
        "Name[ar]": "ساعة تقريبية",
        "Name[bs]": "Neprecizni sat",
        "Name[ca@valencia]": "Rellotge aproximat",
        "Name[ca]": "Rellotge aproximat",
        "Name[cs]": "Nejasné hodiny",
        "Name[da]": "Unøjagtigt ur",
        "Name[de]": "Umgangssprachliche Uhr",
        "Name[el]": "Ασαφές ρολόι",
        "Name[en_GB]": "Fuzzy Clock",
        "Name[es]": "Reloj difuso",
        "Name[et]": "Segane kell",
        "Name[eu]": "Ordulari lausoa",
        "Name[fi]": "Epätarkka kello",
        "Name[fr]": "Horloge floue",
        "Name[ga]": "Clog Doiléir",
        "Name[gl]": "Reloxo impreciso",
        "Name[he]": "שעון לא מדויק",
        "Name[hr]": "Neizrazit sat",
        "Name[hu]": "Fuzzy óra",
        "Name[is]": "Ónákvæm klukka",
        "Name[it]": "Orologio confuso",
        "Name[ja]": "あいまい時計",
        "Name[kk]": "Жазбаша сағат",
        "Name[km]": "នាឡិកា​ស្រពិចស្រពិល",
        "Name[ko]": "퍼지 시계",
        "Name[ku]": "Demjimêra Şêlû",
        "Name[lt]": "Netikslus laikrodis",
        "Name[lv]": "Aptuvens pulkstenis",
        "Name[mr]": "फझी घड्याळ",
        "Name[nb]": "Muntlig klokke",
        "Name[nds]": "Bummelig-Klock",
        "Name[nl]": "Vage klok",
        "Name[nn]": "Uklar klokke",
        "Name[pa]": "ਫਜ਼ੀ ਘੜੀ",
        "Name[pl]": "Rozmyty zegar",
        "Name[pt]": "Relógio Difuso",
        "Name[pt_BR]": "Relógio aproximado",
        "Name[ro]": "Ceas evaziv",
        "Name[ru]": "Неточное время",
        "Name[sk]": "Približné hodiny",
        "Name[sl]": "Zgovorna ura",
        "Name[sq]": "Orë e Mjegullt",
        "Name[sr@ijekavian]": "одокативни сат",
        "Name[sr@ijekavianlatin]": "odokativni sat",
        "Name[sr@latin]": "odokativni sat",
        "Name[sr]": "одокативни сат",
        "Name[sv]": "Inexakt klocka",
        "Name[th]": "นาฬิกาแบบตรรกะพื้นฐาน",
        "Name[tr]": "Bulanık Saat",
        "Name[uk]": "Нечіткий годинник",
        "Name[wa]": "Ôrlodje a l' avirance",
        "Name[x-test]": "xxFuzzy Clockxx",
        "Name[zh_CN]": "模糊时钟",
        "Name[zh_TW]": "模糊時鐘",
        "ServiceTypes": [
            "Plasma/Applet"
        ],
        "Version": "1.0",
        "Website": "plasma.kde.org"
    },
    "X-KDE-ParentApp": "",
    "X-Plasma-API": "declarativeappletscript",
    "X-Plasma-MainScript": "ui/main.qml",
    "X-Plasma-Provides": [
        "org.kde.plasma.time",
        "org.kde.plasma.date"
    ],
    "X-Plasma-RemoteLocation": ""
}
