{
    "KPlugin": {
        "Authors": [
            {
                "Email": "mgraesslin@kde.org",
                "Name": "Martin Gräßlin"
            }
        ],
        "Category": "Clipboard",
        "Dependencies": [
        ],
        "Description": "Provides access to the clipboard history",
        "Description[ar]": "اطّلع على تاريخ الحافظة",
        "Description[ca@valencia]": "Proporciona accés a l'historial del porta-retalls",
        "Description[ca]": "Proporciona accés a l'historial del porta-retalls",
        "Description[cs]": "Poskytuje přístup k historii schránky",
        "Description[da]": "Giver adgang til udklipsholderens historik",
        "Description[de]": "Ermöglicht den Zugriff auf den Verlauf der Zwischenablage",
        "Description[en_GB]": "Provides access to the clipboard history",
        "Description[es]": "Proporciona acceso al historial del portapapeles",
        "Description[eu]": "Arbeleko historiara sarbidea ematen du",
        "Description[fi]": "Tarjoaa pääsyn leikepöydän historiaan",
        "Description[fr]": "Donne accès à l'historique du presse-papiers",
        "Description[gl]": "Fornece acceso ao historial do portapapeis.",
        "Description[hu]": "Hozzáférést nyújt a vágólap előzményeihez",
        "Description[it]": "Fornisce l'accesso allo storico degli appunti",
        "Description[ko]": "클립보드 기록 표시",
        "Description[nl]": "Biedt toegang tot de geschiedenis van klembord",
        "Description[nn]": "Gjev tilgang til utklippstavleloggen",
        "Description[pl]": "Zapewnia dostęp do historii schowka",
        "Description[pt]": "Oferece o acesso ao histórico da área de transferência",
        "Description[pt_BR]": "Fornece acesso ao histórico da área de transferência",
        "Description[ru]": "Предоставляет доступ к журналу буфера обмена",
        "Description[sk]": "Poskytuje prístup k histórii schránky",
        "Description[sl]": "Ponuja dostop do zgodovine odložišča",
        "Description[sr@ijekavian]": "Приступ историјату клипборда",
        "Description[sr@ijekavianlatin]": "Pristup istorijatu klipborda",
        "Description[sr@latin]": "Pristup istorijatu klipborda",
        "Description[sr]": "Приступ историјату клипборда",
        "Description[sv]": "Ger tillgång till klippbordshistoriken",
        "Description[tr]": "Pano geçmişine erişim sağlar",
        "Description[uk]": "Надає доступ до журналу буфера обміну даними",
        "Description[x-test]": "xxProvides access to the clipboard historyxx",
        "Description[zh_CN]": "提供对剪贴板历史的访问",
        "EnabledByDefault": true,
        "FormFactors": [
            "desktop"
        ],
        "Icon": "klipper",
        "Id": "org.kde.plasma.clipboard",
        "License": "GPL-2.0+",
        "Name": "Clipboard",
        "Name[ar]": "الحافظة",
        "Name[bs]": "Klipbord",
        "Name[ca@valencia]": "Porta-retalls",
        "Name[ca]": "Porta-retalls",
        "Name[cs]": "Schránka",
        "Name[da]": "Udklipsholder",
        "Name[de]": "Zwischenablage",
        "Name[el]": "Πρόχειρο",
        "Name[en_GB]": "Clipboard",
        "Name[es]": "Portapapeles",
        "Name[et]": "Lõikepuhver",
        "Name[eu]": "Arbela",
        "Name[fi]": "Leikepöytä",
        "Name[fr]": "Presse-papiers",
        "Name[gl]": "Portapapeis",
        "Name[he]": "לוח העתקה",
        "Name[hu]": "Vágólap",
        "Name[id]": "Papan Klip",
        "Name[is]": "Klippispjald",
        "Name[it]": "Appunti",
        "Name[ja]": "クリップボード",
        "Name[ko]": "클립보드",
        "Name[lt]": "Iškarpinė",
        "Name[nb]": "Utklippstavle",
        "Name[nds]": "Twischenaflaag",
        "Name[nl]": "Klembord",
        "Name[nn]": "Utklippstavle",
        "Name[pa]": "ਕਲਿੱਪਬੋਰਡ",
        "Name[pl]": "Schowek",
        "Name[pt]": "Área de Transferência",
        "Name[pt_BR]": "Área de transferência",
        "Name[ru]": "Буфер обмена",
        "Name[sk]": "Schránka",
        "Name[sl]": "Odložišče",
        "Name[sr@ijekavian]": "клипборд",
        "Name[sr@ijekavianlatin]": "klipbord",
        "Name[sr@latin]": "klipbord",
        "Name[sr]": "клипборд",
        "Name[sv]": "Klippbord",
        "Name[tr]": "Pano",
        "Name[uk]": "Буфер обміну",
        "Name[x-test]": "xxClipboardxx",
        "Name[zh_CN]": "剪贴板",
        "Name[zh_TW]": "剪貼簿",
        "ServiceTypes": [
            "Plasma/Applet"
        ],
        "Version": "1.0"
    },
    "X-Plasma-API": "declarativeappletscript",
    "X-Plasma-MainScript": "ui/clipboard.qml",
    "X-Plasma-NotificationArea": "true",
    "X-Plasma-NotificationAreaCategory": "SystemServices"
}
