{
    "KPlugin": {
        "Authors": [
            {
                "Email": "jesperht@yahoo.com",
                "Name": "Jesper Thomschutz"
            }
        ],
        "Category": "Fun and Games",
        "Description": "Put the pieces in order",
        "Description[ar]": "ضع القطع في مكانها الصحيح",
        "Description[bs]": "Poređajte djeliće ispravnim redoslijedom",
        "Description[ca@valencia]": "Poseu les peces en orde",
        "Description[ca]": "Poseu les peces en ordre",
        "Description[cs]": "Zkuste dílky správně poskládat",
        "Description[da]": "Sæt brikkerne i orden.",
        "Description[de]": "Bringen Sie die Teile in die richtige Reihenfolge",
        "Description[el]": "Τοποθετήσετε τα κομμάτια στη θέση τους",
        "Description[en_GB]": "Put the pieces in order",
        "Description[es]": "Ponga las piezas en orden",
        "Description[et]": "Tükikeste seadmine õigesse järjekorda",
        "Description[eu]": "Piezak ordenean ipini",
        "Description[fi]": "Pane palat järjestykseen",
        "Description[fr]": "Remettez les pièces dans l'ordre",
        "Description[ga]": "Cuir na píosaí in ord",
        "Description[gl]": "Poña as pezas en orde",
        "Description[he]": "סדר את החלקים לפי הסדר",
        "Description[hr]": "Složite komadiće u niz",
        "Description[hu]": "Rakja sorba a darabokat",
        "Description[is]": "Raða hlutunum á sinn stað",
        "Description[it]": "Rimetti i pezzi in ordine",
        "Description[ja]": "15 個のピースを正しい順序に並べるパズル",
        "Description[kk]": "Тастарды реттеу ойыны",
        "Description[km]": "ដាក់​ចំណែក​ជា​លំដាប់",
        "Description[ko]": "조각을 순서대로 맞춰 보세요",
        "Description[ku]": "Perçe yan rêz bike",
        "Description[lt]": "Surinkite dėlionę",
        "Description[lv]": "Salieciet gabalus pareizā kārtībā",
        "Description[mr]": "तुकडे क्रमाने लावा",
        "Description[nb]": "Plasser brikkene i rekkefølge",
        "Description[nds]": "Stücken in de Reeg bringen",
        "Description[nl]": "Zet de stukken in de juiste volgorde",
        "Description[nn]": "Flytt brikkene i rett rekkjefølgje",
        "Description[pa]": "ਟੁਕੜਿਆਂ ਨੂੰ ਲੜੀਬੱਧ ਕਰੋ",
        "Description[pl]": "Puzzle do układania",
        "Description[pt]": "Colocar as peças por ordem",
        "Description[pt_BR]": "Coloque as peças em ordem",
        "Description[ro]": "Potriviți piesele",
        "Description[ru]": "Головоломка: расположите клеточки по порядку",
        "Description[sk]": "Skúste správne poskladať kúsky",
        "Description[sl]": "Postavite kose v pravilni vrstni red",
        "Description[sr@ijekavian]": "Поређајте дјелиће исправним редослиједом",
        "Description[sr@ijekavianlatin]": "Poređajte djeliće ispravnim redoslijedom",
        "Description[sr@latin]": "Poređajte deliće ispravnim redosledom",
        "Description[sr]": "Поређајте делиће исправним редоследом",
        "Description[sv]": "Placera brickorna i ordning",
        "Description[th]": "เกมจัดเรียงชิ้นส่วนสิบห้าชิ้นให้ถูกลำดับ",
        "Description[tr]": "Parçaları sıraya koyun",
        "Description[uk]": "Спробуйте впорядкувати плитки",
        "Description[wa]": "Metoz les pices en ôre",
        "Description[x-test]": "xxPut the pieces in orderxx",
        "Description[zh_CN]": "按顺序摆放拼图块",
        "Description[zh_TW]": "將數字依順序排好",
        "Icon": "fifteenpuzzle",
        "Id": "org.kde.plasma.fifteenpuzzle",
        "License": "GPL-2.0+",
        "Name": "Fifteen Puzzle",
        "Name[ar]": "أحجية الخمسة عشر",
        "Name[bs]": "Petnaest kvadrata",
        "Name[ca@valencia]": "Trencaclosques quinze",
        "Name[ca]": "Trencaclosques quinze",
        "Name[cs]": "Hra Patnáct",
        "Name[csb]": "Piãtnôsce pùzzlów",
        "Name[da]": "Puslespillet 15",
        "Name[de]": "Fünfzehn Steine",
        "Name[el]": "Παζλ 15 κομματιών",
        "Name[en_GB]": "Fifteen Puzzle",
        "Name[es]": "Puzzle Quince",
        "Name[et]": "Viieteistkümnemäng",
        "Name[eu]": "Hamabosteko buruhaustekoa",
        "Name[fi]": "Puzzle 15",
        "Name[fr]": "Taquin",
        "Name[ga]": "Puzal Cúig Déag",
        "Name[gl]": "Quebracabezas de quince pezas",
        "Name[he]": "פאזל מספרים",
        "Name[hr]": "Fifteen Puzzle",
        "Name[hu]": "15-ös kirakó",
        "Name[is]": "Fimmtán púsl",
        "Name[it]": "Il gioco del quindici",
        "Name[ja]": "15 ピースパズル",
        "Name[kk]": "'Он бес' ойны",
        "Name[km]": "ផ្ដុំ​រូបភាព​ ១៥",
        "Name[ko]": "열다섯 조각 퍼즐",
        "Name[ku]": "Peydanok 15",
        "Name[lt]": "Penkiolika dalių",
        "Name[lv]": "Piecpadsmit gabali",
        "Name[mr]": "पंधरा कोडे",
        "Name[nb]": "Femten brikker",
        "Name[nds]": "Föffteihn Stücken",
        "Name[nl]": "Vijftien-puzzel",
        "Name[nn]": "Spelet femten",
        "Name[pa]": "ਪੰਦਰਾਂ ਬੁਝਾਰਤ",
        "Name[pl]": "Piętnaście puzzli",
        "Name[pt]": "Puzzle dos Quinze",
        "Name[pt_BR]": "Quebra-cabeça quinze",
        "Name[ro]": "Fifteen Puzzle",
        "Name[ru]": "Пятнашки",
        "Name[sk]": "Hra pätnástka",
        "Name[sl]": "Petnajst kosov",
        "Name[sr@ijekavian]": "петнаестица",
        "Name[sr@ijekavianlatin]": "petnaestica",
        "Name[sr@latin]": "petnaestica",
        "Name[sr]": "петнаестица",
        "Name[sv]": "Femtonspel",
        "Name[th]": "เกมเรียงสิบห้าชิ้น",
        "Name[tr]": "Onbeşli Yapboz",
        "Name[uk]": "Гра у п’ятнашки",
        "Name[wa]": "Puzeul des céncwantes",
        "Name[x-test]": "xxFifteen Puzzlexx",
        "Name[zh_CN]": "十五子拼图",
        "Name[zh_TW]": "Fifteen 解謎遊戲",
        "ServiceTypes": [
            "Plasma/Applet"
        ],
        "Version": "1.0",
        "Website": "http://plasma.kde.org/"
    },
    "X-KDE-ParentApp": "",
    "X-Plasma-API": "declarativeappletscript",
    "X-Plasma-MainScript": "ui/main.qml",
    "X-Plasma-StandAloneApp": true
}
