{
    "KPlugin": {
        "Authors": [
            {
                "Email": "kde@privat.broulik.de",
                "Name": "Kai Uwe Broulik"
            }
        ],
        "Category": "System Information",
        "Description": "Quickly switch between different users",
        "Description[ar]": "بدّل بين مختلف المستخدمين بسرعة",
        "Description[ca@valencia]": "Commuta ràpidament entre diferents usuaris",
        "Description[ca]": "Commuta ràpidament entre diferents usuaris",
        "Description[da]": "Skift hurtigt mellem forskellige brugere",
        "Description[de]": "Schnell zwischen verschiedenen Benutzern wechseln",
        "Description[el]": "Γρήγορη εναλλαγή μεταξύ διαφορετικών χρηστών",
        "Description[en_GB]": "Quickly switch between different users",
        "Description[es]": "Cambiar rápidamente entre diferentes usuarios",
        "Description[et]": "Kiire lülitumine erinevate kasutajate vahel",
        "Description[eu]": "Erabiltzaile ezberdinen artean azkar aldatu",
        "Description[fi]": "Vaihda nopeasti käyttäjien välillä",
        "Description[fr]": "Bascule rapidement d'un utilisateur à l'autre",
        "Description[gl]": "Cambia rapidamente de usuario.",
        "Description[he]": "החלף בין משתמשים במהירות",
        "Description[hu]": "Gyors váltás különböző felhasználók között",
        "Description[it]": "Passa rapidamente tra i diversi utenti",
        "Description[ko]": "사용자를 빠르게 전환",
        "Description[lt]": "Greitai persijunkite tarp skirtingų sistemos naudotojų",
        "Description[nl]": "Snel wisselen tussen verschillende gebruikers",
        "Description[nn]": "Byt kjapt mellom ulike brukarar",
        "Description[pl]": "Przełącza między użytkownikami",
        "Description[pt]": "Mudar rapidamente entre os diferentes utilizadores",
        "Description[pt_BR]": "Alterna rapidamente entre os usuários",
        "Description[ru]": "Быстрое переключение между пользователями",
        "Description[sk]": "Rýchlo prepnúť medzi rôznymi používateľmi",
        "Description[sl]": "Hitro preklopite med različnimi uporabniki",
        "Description[sr@ijekavian]": "Брзо пребацивање између више корисника",
        "Description[sr@ijekavianlatin]": "Brzo prebacivanje između više korisnika",
        "Description[sr@latin]": "Brzo prebacivanje između više korisnika",
        "Description[sr]": "Брзо пребацивање између више корисника",
        "Description[sv]": "Byt snabbt mellan olika användare",
        "Description[tr]": "Farklı kullanıcılar arasında hızlıca geçiş yap",
        "Description[uk]": "Швидке перемикання між записами користувачів",
        "Description[x-test]": "xxQuickly switch between different usersxx",
        "Description[zh_CN]": "快速在不同用户间切换",
        "Description[zh_TW]": "快速在不同使用者間切換",
        "Icon": "preferences-desktop-user",
        "Id": "org.kde.plasma.userswitcher",
        "License": "GPL-2.0+",
        "Name": "User Switcher",
        "Name[ar]": "مبدّل المستخدمين",
        "Name[ca@valencia]": "Commutador d'usuaris",
        "Name[ca]": "Commutador d'usuaris",
        "Name[cs]": "Přepínání uživatelů",
        "Name[da]": "Brugerskifter",
        "Name[de]": "Benutzerwechsel",
        "Name[el]": "Εναλλαγή χρήστη",
        "Name[en_GB]": "User Switcher",
        "Name[es]": "Selector de usuario",
        "Name[et]": "Kasutaja vahetamine",
        "Name[eu]": "Erabiltzaile trukatzailea",
        "Name[fi]": "Käyttäjävaihdin",
        "Name[fr]": "Sélecteur d'utilisateur",
        "Name[gl]": "Selector de usuario",
        "Name[he]": "מחליף משתמשים",
        "Name[hu]": "Felhasználóváltó",
        "Name[it]": "Cambia utente",
        "Name[ko]": "사용자 전환기",
        "Name[lt]": "Naudotojų perjungimas",
        "Name[nl]": "Wisselen van gebruiker",
        "Name[nn]": "Brukarbytar",
        "Name[pl]": "Przełącznik użytkowników",
        "Name[pt]": "Mudança de Utilizador",
        "Name[pt_BR]": "Seletor de usuário",
        "Name[ru]": "Переключатель пользователей",
        "Name[sk]": "Prepínač používateľov",
        "Name[sl]": "Preklopnik uporabnikov",
        "Name[sr@ijekavian]": "Мењач корисника",
        "Name[sr@ijekavianlatin]": "Menjač korisnika",
        "Name[sr@latin]": "Menjač korisnika",
        "Name[sr]": "Мењач корисника",
        "Name[sv]": "Använd användarbyte",
        "Name[tr]": "Kullanıcı Değiştirici",
        "Name[uk]": "Перемикання користувачів",
        "Name[x-test]": "xxUser Switcherxx",
        "Name[zh_CN]": "用户切换器",
        "Name[zh_TW]": "使用者切換器",
        "ServiceTypes": [
            "Plasma/Applet"
        ],
        "Version": "1.0",
        "Website": "http://plasma.kde.org"
    },
    "X-Plasma-API": "declarativeappletscript",
    "X-Plasma-MainScript": "ui/main.qml"
}
