{
    "KPlugin": {
        "Authors": [
            {
                "Email": "plasma-devel@kde.org",
                "Name": "The Plasma Team"
            }
        ],
        "Category": "File System",
        "Dependencies": [
        ],
        "Description": "A generic icon",
        "Description[ar]": "أيقونة عامّة",
        "Description[be@latin]": "Prostaja ikona",
        "Description[bg]": "Обикновена икона",
        "Description[bn_IN]": "একটি সাধারণ আইকন",
        "Description[bs]": "Generička ikona",
        "Description[ca@valencia]": "Una icona genèrica",
        "Description[ca]": "Una icona genèrica",
        "Description[cs]": "Obecná ikona",
        "Description[csb]": "Prostô ikòna",
        "Description[da]": "Et generisk ikon",
        "Description[de]": "Ein allgemeines Symbol",
        "Description[el]": "Ένα γενικό εικονίδιο",
        "Description[en_GB]": "A generic icon",
        "Description[eo]": "Ĝenerala piktogramo",
        "Description[es]": "Un icono genérico",
        "Description[et]": "Üldine ikoon",
        "Description[eu]": "Ikono generiko bat",
        "Description[fi]": "Yleinen kuvake",
        "Description[fr]": "Une icône générique",
        "Description[fy]": "In algemien byldkaike",
        "Description[ga]": "Deilbhín ginearálta",
        "Description[gl]": "Unha icona xenérica",
        "Description[gu]": "સામાન્ય ચિહ્ન",
        "Description[he]": "סימלון כללי",
        "Description[hi]": "जेनेरिक प्रतीक",
        "Description[hne]": "जेनरिक चिनहा",
        "Description[hr]": "Opća ikona",
        "Description[hsb]": "Generiski piktogram",
        "Description[hu]": "Általános ikon",
        "Description[ia]": "Un icone generic",
        "Description[id]": "Ikon Generik",
        "Description[is]": "Almenn táknmynd",
        "Description[it]": "Un'icona generica",
        "Description[ja]": "一般アイコン",
        "Description[kk]": "Жалпы таңбашасы",
        "Description[km]": "រូបតំណាង​ទូទៅ",
        "Description[kn]": "ಒಂದು ಅಲಿಪ್ತ (ಜೆನೆರಿಕ್) ಚಿಹ್ನೆ",
        "Description[ko]": "일반적인 아이콘",
        "Description[ku]": "Îkoneke jenerîk",
        "Description[lt]": "Bendro pobūdžio ženkliukas",
        "Description[lv]": "Vispārīga ikona",
        "Description[mk]": "Општа икона",
        "Description[ml]": "സാധാരണ പ്രതിരൂപം",
        "Description[mr]": "सामान्य चिन्ह",
        "Description[nb]": "Et generisk ikon",
        "Description[nds]": "Allgemeen en Lüttbild",
        "Description[nl]": "Een generiek pictogram",
        "Description[nn]": "Eit generisk ikon",
        "Description[or]": "ଗୋଟିଏ ସାମାନ୍ୟ ଚିତ୍ର ସଂକେତ",
        "Description[pa]": "ਆਮ ਆਈਕਾਨ",
        "Description[pl]": "Zwykła ikona",
        "Description[pt]": "Um ícone genérico",
        "Description[pt_BR]": "Um ícone genérico",
        "Description[ro]": "O pictogramă generică",
        "Description[ru]": "Значок запуска",
        "Description[si]": "සාමාන්‍ය අයිකනයක්",
        "Description[sk]": "Všeobecná ikona",
        "Description[sl]": "Običajna ikona",
        "Description[sr@ijekavian]": "Генеричка иконица",
        "Description[sr@ijekavianlatin]": "Generička ikonica",
        "Description[sr@latin]": "Generička ikonica",
        "Description[sr]": "Генеричка иконица",
        "Description[sv]": "En generell ikon",
        "Description[ta]": "பொதுவான ஓவம்",
        "Description[tg]": "Нишонаи умумӣ",
        "Description[th]": "ภาพไอคอนทั่วไป",
        "Description[tr]": "Bir genel simge",
        "Description[ug]": "ئادەتتىكى سىنبەلگە",
        "Description[uk]": "Загальна піктограма",
        "Description[wa]": "Ene imådjete båzike",
        "Description[x-test]": "xxA generic iconxx",
        "Description[zh_CN]": "通用图标",
        "Description[zh_TW]": "一般圖示",
        "EnabledByDefault": true,
        "Id": "org.kde.plasma.icon",
        "License": "GPL",
        "Name": "Icon",
        "Name[af]": "Ikoon",
        "Name[ar]": "أيقونة",
        "Name[as]": "আইকন",
        "Name[ast]": "Iconu",
        "Name[be@latin]": "Ikona",
        "Name[bg]": "Икона",
        "Name[bn]": "আইকন",
        "Name[bn_IN]": "আইকন",
        "Name[bs]": "Ikona",
        "Name[ca@valencia]": "Icona",
        "Name[ca]": "Icona",
        "Name[cs]": "Ikona",
        "Name[csb]": "Ikòna",
        "Name[da]": "Ikon",
        "Name[de]": "Symbol",
        "Name[el]": "Εικονίδιο",
        "Name[en_GB]": "Icon",
        "Name[eo]": "Piktogramo",
        "Name[es]": "Icono",
        "Name[et]": "Ikoon",
        "Name[eu]": "Ikonoa",
        "Name[fa]": "شمایل",
        "Name[fi]": "Kuvake",
        "Name[fr]": "Icône",
        "Name[fy]": "Bykdkaike",
        "Name[ga]": "Deilbhín",
        "Name[gl]": "Icona",
        "Name[gu]": "ચિહ્ન",
        "Name[he]": "סימלון",
        "Name[hi]": "प्रतीक",
        "Name[hne]": "चिनहा",
        "Name[hr]": "Ikona",
        "Name[hsb]": "Piktogram",
        "Name[hu]": "Ikon",
        "Name[ia]": "Icone",
        "Name[id]": "Ikon",
        "Name[is]": "Táknmynd",
        "Name[it]": "Icona",
        "Name[ja]": "アイコン",
        "Name[kk]": "Таңбаша",
        "Name[km]": "រូប​តំណាង",
        "Name[kn]": "ಚಿಹ್ನೆ",
        "Name[ko]": "아이콘",
        "Name[ku]": "Îkon",
        "Name[lt]": "Ženkliukas",
        "Name[lv]": "Ikona",
        "Name[mai]": "चिह्न",
        "Name[mk]": "Икона",
        "Name[ml]": "ചിഹ്നം",
        "Name[mr]": "चिन्ह",
        "Name[nb]": "Ikon",
        "Name[nds]": "Lüttbild",
        "Name[nl]": "Pictogram",
        "Name[nn]": "Ikon",
        "Name[oc]": "Icòna",
        "Name[or]": "ଚିତ୍ର ସଂକେତ",
        "Name[pa]": "ਆਈਕਾਨ",
        "Name[pl]": "Ikona",
        "Name[pt]": "Ícone",
        "Name[pt_BR]": "Ícone",
        "Name[ro]": "Pictogramă",
        "Name[ru]": "Значок",
        "Name[se]": "Govaš",
        "Name[si]": "අයිකනය",
        "Name[sk]": "Ikona",
        "Name[sl]": "Ikona",
        "Name[sr@ijekavian]": "икона",
        "Name[sr@ijekavianlatin]": "ikona",
        "Name[sr@latin]": "ikona",
        "Name[sr]": "икона",
        "Name[sv]": "Ikon",
        "Name[ta]": "ஓவங்கள்",
        "Name[te]": "ప్రతిమ",
        "Name[tg]": "Нишона",
        "Name[th]": "ภาพไอคอน",
        "Name[tr]": "Simge",
        "Name[ug]": "سىنبەلگە",
        "Name[uk]": "Піктограма",
        "Name[uz@cyrillic]": "Нишонча",
        "Name[uz]": "Nishoncha",
        "Name[vi]": "Biểu tượng",
        "Name[wa]": "Imådjete",
        "Name[x-test]": "xxIconxx",
        "Name[zh_CN]": "图标",
        "Name[zh_TW]": "圖示",
        "ServiceTypes": [
            "Plasma/Applet"
        ],
        "Version": "1.0",
        "Website": "http://plasma.kde.org/"
    },
    "NoDisplay": true,
    "X-Plasma-API": "declarativeappletscript",
    "X-Plasma-MainScript": "ui/main.qml"
}
