{
    "KPlugin": {
        "Authors": [
            {
                "Email": "nowrep@gmail.com",
                "Name": "David Rosca"
            }
        ],
        "Category": "System Information",
        "Description": "Bluetooth status and control",
        "Description[ar]": "حالة بلوتوث والتّحكّم بها",
        "Description[ca@valencia]": "Estat i control del Bluetooth",
        "Description[ca]": "Estat i control del Bluetooth",
        "Description[cs]": "Stav a ovládání Bluetooth",
        "Description[da]": "Bluetooth-status og -kontrol",
        "Description[de]": "Bluetooth-Status und -steuerung",
        "Description[el]": "Κατάσταση και έλεγχος Bluetooth",
        "Description[en_GB]": "Bluetooth status and control",
        "Description[es]": "Estado y control de Bluetooth",
        "Description[et]": "Bluetoothi olek ja juhtimine",
        "Description[eu]": "Bluetooth egoera eta kontrola",
        "Description[fi]": "Bluetoothin tila ja hallinta",
        "Description[fr]": "État et contrôle du Bluetooth",
        "Description[gl]": "Control e estado de Bluetooth",
        "Description[he]": "שליטה ומצב הבלוטוס",
        "Description[hu]": "Bluetooth állapot és vezérlés",
        "Description[ia]": "Stato e controlo de Bluetooth",
        "Description[id]": "Status dan kendali bluetooth",
        "Description[it]": "Stato e controllo del Bluetooth",
        "Description[ko]": "블루투스 상태와 제어",
        "Description[lt]": "Tinklo būsena ir kontrolė",
        "Description[nb]": "Bluetoothstatus og styring",
        "Description[nl]": "Status en besturing van bluetooth",
        "Description[nn]": "Status og styring for Bluetooth",
        "Description[pa]": "ਬਲੂਟੁੱਥ ਹਾਲਤ ਅਤੇ ਕੰਟਰੋਲ",
        "Description[pl]": "Stan i obsługa Bluetooth",
        "Description[pt]": "Estado e controlo do Bluetooth",
        "Description[pt_BR]": "Status e controle do Bluetooth",
        "Description[ro]": "Starea și controlul Bluetooth",
        "Description[ru]": "Состояние и управление Bluetooth",
        "Description[sk]": "Stav a ovládanie Bluetooth",
        "Description[sl]": "Stanje Bluetootha in nadzor",
        "Description[sr@ijekavian]": "Стање и управљање блутутом",
        "Description[sr@ijekavianlatin]": "Stanje i upravljanje Bluetoothom",
        "Description[sr@latin]": "Stanje i upravljanje Bluetoothom",
        "Description[sr]": "Стање и управљање блутутом",
        "Description[sv]": "Bllåtandstatus och kontroll",
        "Description[tr]": "Bluetooth denetim ve durum izleme",
        "Description[uk]": "Стан Bluetooth і керування ним",
        "Description[x-test]": "xxBluetooth status and controlxx",
        "Description[zh_CN]": "蓝牙状态和控制",
        "Description[zh_TW]": "藍牙狀態與控制",
        "EnabledByDefault": true,
        "Icon": "preferences-system-bluetooth",
        "Id": "org.kde.plasma.bluetooth",
        "License": "GPL V2+",
        "Name": "Bluetooth",
        "Name[ar]": "بلوتوث",
        "Name[ast]": "Bluetooth",
        "Name[bs]": "Blutut",
        "Name[ca@valencia]": "Bluetooth",
        "Name[ca]": "Bluetooth",
        "Name[cs]": "Bluetooth",
        "Name[da]": "Bluetooth",
        "Name[de]": "Bluetooth",
        "Name[el]": "Bluetooth",
        "Name[en_GB]": "Bluetooth",
        "Name[es]": "Bluetooth",
        "Name[et]": "Bluetooth",
        "Name[eu]": "Bluetooth",
        "Name[fi]": "Bluetooth",
        "Name[fr]": "Bluetooth",
        "Name[gl]": "Bluetooth",
        "Name[he]": "בלוטוס",
        "Name[hu]": "Bluetooth",
        "Name[ia]": "Bluetooth",
        "Name[id]": "Bluetooth",
        "Name[it]": "Bluetooth",
        "Name[ja]": "Bluetooth",
        "Name[ko]": "블루투스",
        "Name[lt]": "Bluetooth",
        "Name[nb]": "Bluetooth",
        "Name[nl]": "Bluetooth",
        "Name[nn]": "Bluetooth",
        "Name[pa]": "ਬਲੂਟੁੱਥ",
        "Name[pl]": "Bluetooth",
        "Name[pt]": "Bluetooth",
        "Name[pt_BR]": "Bluetooth",
        "Name[ro]": "Bluetooth",
        "Name[ru]": "Bluetooth",
        "Name[sk]": "Bluetooth",
        "Name[sl]": "Bluetooth",
        "Name[sr@ijekavian]": "Блутут",
        "Name[sr@ijekavianlatin]": "Bluetooth",
        "Name[sr@latin]": "Bluetooth",
        "Name[sr]": "Блутут",
        "Name[sv]": "Blåtand",
        "Name[tr]": "Bluetooth",
        "Name[uk]": "Bluetooth",
        "Name[x-test]": "xxBluetoothxx",
        "Name[zh_CN]": "蓝牙",
        "Name[zh_TW]": "藍牙",
        "ServiceTypes": [
            "Plasma/Applet"
        ],
        "Version": "3.0.0",
        "Website": "https://projects.kde.org/projects/kde/workspace/bluedevil"
    },
    "X-Plasma-API": "declarativeappletscript",
    "X-Plasma-DBusActivationService": "org.bluez",
    "X-Plasma-MainScript": "ui/BluetoothApplet.qml",
    "X-Plasma-NotificationArea": "true",
    "X-Plasma-NotificationAreaCategory": "Hardware"
}
